229050,11,4,FUTCOM,axis,27AUG2015, , ,axis,1,RL,1,13736,0,1,5000,526.7,1,11001,13735, , , ,22 Aug 2015 ,22 Aug 2015 ,229050,NIL, ,21
229052,11,4,FUTCOM,CIPLA,27AUG2015, , ,CIPLA,1,RL,1,13736,0,1,5000,697.95,1,11001,13735, , , ,22 Aug 2015 ,22 Aug 2015 ,229052,NIL, ,21
229054,11,4,FUTCOM,hdfc,27AUG2015, , ,hdfc,1,RL,1,13736,0,1,5000,1231,1,11001,13735, , , ,22 Aug 2015 ,22 Aug 2015 ,229054,NIL, ,21
229056,11,4,FUTCOM,hdfcBank,27AUG2015, , ,hdfcBank,1,RL,1,13736,0,1,5000,1060.1,1,11001,13735, , , ,22 Aug 2015 ,22 Aug 2015 ,229056,NIL, ,21
229058,11,4,FUTCOM,lt,27AUG2015, , ,lt,1,RL,1,13736,0,1,5000,1742.85,1,11001,13735, , , ,22 Aug 2015 ,22 Aug 2015 ,229058,NIL, ,21
229060,11,4,FUTCOM,lupin,27AUG2015, , ,lupin,1,RL,1,13736,0,0,5000,1880.4,1,11001,13735, , , ,22 Aug 2015 ,22 Aug 2015 ,229060,NIL, ,21
229062,11,4,FUTCOM,mahindra,27AUG2015, , ,mahindra,1,RL,1,13736,0,1,5000,1325.65,1,11001,13735, , , ,22 Aug 2015 ,22 Aug 2015 ,229062,NIL, ,21
229064,11,4,FUTCOM,nifty,27AUG2015, , ,nifty,1,RL,1,13736,0,1,3000,8306.35,1,11001,13735, , , ,22 Aug 2015 ,22 Aug 2015 ,229064,NIL, ,21
229066,11,4,FUTCOM,reliance,27AUG2015, , ,reliance,1,RL,1,13736,0,1,5000,910.5,1,11001,13735, , , ,22 Aug 2015 ,22 Aug 2015 ,229066,NIL, ,21
229068,11,4,FUTCOM,sunpharma,27AUG2015, , ,sunpharma,1,RL,1,13736,0,1,5000,936.35,1,11001,13735, , , ,22 Aug 2015 ,22 Aug 2015 ,229068,NIL, ,21
229070,11,4,FUTCOM,voltas,27AUG2015, , ,voltas,1,RL,1,13736,0,1,5000,289.45,1,11001,13735, , , ,22 Aug 2015 ,22 Aug 2015 ,229070,NIL, ,21
229072,11,4,FUTCOM,axis,27AUG2015, , ,axis,1,RL,1,13736,0,1,5000,526.7,1,11001,13735, , , ,22 Aug 2015 ,22 Aug 2015 ,229072,NIL, ,44
229074,11,4,FUTCOM,hdfc,27AUG2015, , ,hdfc,1,RL,1,13736,0,1,5000,1231,1,11001,13735, , , ,22 Aug 2015 ,22 Aug 2015 ,229074,NIL, ,44
229076,11,4,FUTCOM,hdfcBank,27AUG2015, , ,hdfcBank,1,RL,1,13736,0,1,5000,1060.1,1,11001,13735, , , ,22 Aug 2015 ,22 Aug 2015 ,229076,NIL, ,44
229078,11,4,FUTCOM,lt,27AUG2015, , ,lt,1,RL,1,13736,0,1,5000,1742.85,1,11001,13735, , , ,22 Aug 2015 ,22 Aug 2015 ,229078,NIL, ,44
229080,11,4,FUTCOM,lupin,27AUG2015, , ,lupin,1,RL,1,13736,0,0,5000,1880.4,1,11001,13735, , , ,22 Aug 2015 ,22 Aug 2015 ,229080,NIL, ,44
229082,11,4,FUTCOM,mahindra,27AUG2015, , ,mahindra,1,RL,1,13736,0,1,5000,1325.65,1,11001,13735, , , ,22 Aug 2015 ,22 Aug 2015 ,229082,NIL, ,44
229084,11,4,FUTCOM,nifty,27AUG2015, , ,nifty,1,RL,1,13736,0,1,3000,8306.35,1,11001,13735, , , ,22 Aug 2015 ,22 Aug 2015 ,229084,NIL, ,44
229086,11,4,FUTCOM,reliance,27AUG2015, , ,reliance,1,RL,1,13736,0,1,5000,910.5,1,11001,13735, , , ,22 Aug 2015 ,22 Aug 2015 ,229086,NIL, ,44
229088,11,4,FUTCOM,acc,27AUG2015, , ,acc,1,RL,1,13736,0,1,5000,1403.95,1,11001,13735, , , ,22 Aug 2015 ,22 Aug 2015 ,229088,NIL, ,42
229090,11,4,FUTCOM,ARVIND,27AUG2015, , ,ARVIND,1,RL,1,13736,0,0,10000,280.15,1,11001,13735, , , ,22 Aug 2015 ,22 Aug 2015 ,229090,NIL, ,42
229092,11,4,FUTCOM,canbk,27AUG2015, , ,canbk,1,RL,1,13736,0,0,3000,328.8,1,11001,13735, , , ,22 Aug 2015 ,22 Aug 2015 ,229092,NIL, ,42
229094,11,4,FUTCOM,centuryt,27AUG2015, , ,centuryt,1,RL,1,13736,0,1,10000,665.4,1,11001,13735, , , ,22 Aug 2015 ,22 Aug 2015 ,229094,NIL, ,42
229096,11,4,FUTCOM,hdfc,27AUG2015, , ,hdfc,1,RL,1,13736,0,1,5000,1231,1,11001,13735, , , ,22 Aug 2015 ,22 Aug 2015 ,229096,NIL, ,42
229098,11,4,FUTCOM,hdfcBank,27AUG2015, , ,hdfcBank,1,RL,1,13736,0,0,5000,1060.1,1,11001,13735, , , ,22 Aug 2015 ,22 Aug 2015 ,229098,NIL, ,42
229100,11,4,FUTCOM,HINDPETRO,27AUG2015, , ,HINDPETRO,1,RL,1,13736,0,0,10000,860.85,1,11001,13735, , , ,22 Aug 2015 ,22 Aug 2015 ,229100,NIL, ,42
229102,11,4,FUTCOM,HINDZINC,27AUG2015, , ,HINDZINC,1,RL,1,13736,0,1,10000,137.3,1,11001,13735, , , ,22 Aug 2015 ,22 Aug 2015 ,229102,NIL, ,42
229104,11,4,FUTCOM,IGL,27AUG2015, , ,IGL,1,RL,1,13736,0,0,10000,483.15,1,11001,13735, , , ,22 Aug 2015 ,22 Aug 2015 ,229104,NIL, ,42
229106,11,4,FUTCOM,jswsteel,27AUG2015, , ,jswsteel,1,RL,1,13736,0,0,10000,947.3,1,11001,13735, , , ,22 Aug 2015 ,22 Aug 2015 ,229106,NIL, ,42
229108,11,4,FUTCOM,LIC,27AUG2015, , ,LIC,1,RL,1,13736,0,0,5000,461.85,1,11001,13735, , , ,22 Aug 2015 ,22 Aug 2015 ,229108,NIL, ,42
229110,11,4,FUTCOM,mahindra,27AUG2015, , ,mahindra,1,RL,1,13736,0,0,2500,1325.65,1,11001,13735, , , ,22 Aug 2015 ,22 Aug 2015 ,229110,NIL, ,42
229112,11,4,FUTCOM,TATACHEM,27AUG2015, , ,TATACHEM,1,RL,1,13736,0,0,5000,446.35,1,11001,13735, , , ,22 Aug 2015 ,22 Aug 2015 ,229112,NIL, ,42
229114,11,4,FUTCOM,acc,27AUG2015, , ,acc,1,RL,1,13736,0,1,5000,1403.95,1,11001,13735, , , ,22 Aug 2015 ,22 Aug 2015 ,229114,NIL, ,12
229116,11,4,FUTCOM,ARVIND,27AUG2015, , ,ARVIND,1,RL,1,13736,0,0,10000,280.15,1,11001,13735, , , ,22 Aug 2015 ,22 Aug 2015 ,229116,NIL, ,12
229118,11,4,FUTCOM,canbk,27AUG2015, , ,canbk,1,RL,1,13736,0,0,3000,328.8,1,11001,13735, , , ,22 Aug 2015 ,22 Aug 2015 ,229118,NIL, ,12
229120,11,4,FUTCOM,centuryt,27AUG2015, , ,centuryt,1,RL,1,13736,0,1,10000,665.4,1,11001,13735, , , ,22 Aug 2015 ,22 Aug 2015 ,229120,NIL, ,12
229122,11,4,FUTCOM,hdfc,27AUG2015, , ,hdfc,1,RL,1,13736,0,1,5000,1231,1,11001,13735, , , ,22 Aug 2015 ,22 Aug 2015 ,229122,NIL, ,12
229124,11,4,FUTCOM,hdfcBank,27AUG2015, , ,hdfcBank,1,RL,1,13736,0,0,5000,1060.1,1,11001,13735, , , ,22 Aug 2015 ,22 Aug 2015 ,229124,NIL, ,12
229126,11,4,FUTCOM,HINDPETRO,27AUG2015, , ,HINDPETRO,1,RL,1,13736,0,0,10000,860.85,1,11001,13735, , , ,22 Aug 2015 ,22 Aug 2015 ,229126,NIL, ,12
229128,11,4,FUTCOM,HINDZINC,27AUG2015, , ,HINDZINC,1,RL,1,13736,0,1,10000,137.3,1,11001,13735, , , ,22 Aug 2015 ,22 Aug 2015 ,229128,NIL, ,12
229130,11,4,FUTCOM,IGL,27AUG2015, , ,IGL,1,RL,1,13736,0,0,10000,483.15,1,11001,13735, , , ,22 Aug 2015 ,22 Aug 2015 ,229130,NIL, ,12
229132,11,4,FUTCOM,jswsteel,27AUG2015, , ,jswsteel,1,RL,1,13736,0,0,10000,947.3,1,11001,13735, , , ,22 Aug 2015 ,22 Aug 2015 ,229132,NIL, ,12
229134,11,4,FUTCOM,LIC,27AUG2015, , ,LIC,1,RL,1,13736,0,0,5000,461.85,1,11001,13735, , , ,22 Aug 2015 ,22 Aug 2015 ,229134,NIL, ,12
229136,11,4,FUTCOM,mahindra,27AUG2015, , ,mahindra,1,RL,1,13736,0,0,2500,1325.65,1,11001,13735, , , ,22 Aug 2015 ,22 Aug 2015 ,229136,NIL, ,12
229138,11,4,FUTCOM,TATACHEM,27AUG2015, , ,TATACHEM,1,RL,1,13736,0,0,5000,446.35,1,11001,13735, , , ,22 Aug 2015 ,22 Aug 2015 ,229138,NIL, ,12
229162,11,4,FUTCOM,GOLD,05OCT2015, , ,GOLD,1,RL,1,13736,0,0,2000,27239,1,11001,13735, , , ,22 Aug 2015 ,22 Aug 2015 ,229162,NIL, ,21
229164,11,4,FUTCOM,GOLD,05OCT2015, , ,GOLD,1,RL,1,13736,0,0,400,27239,1,11001,13735, , , ,22 Aug 2015 ,22 Aug 2015 ,229164,NIL, ,32
229166,11,4,FUTCOM,NICKEL,30JUN2015, , ,NICKEL,1,RL,1,13736,0,1,5000,674.3,1,11001,13735, , , ,22 Aug 2015 ,22 Aug 2015 ,229166,NIL, ,32
229168,11,4,FUTCOM,SILVER,04SEP2015, , ,SILVER,1,RL,1,13736,0,1,150,36200,1,11001,13735, , , ,22 Aug 2015 ,22 Aug 2015 ,229168,NIL, ,32
229170,11,4,FUTCOM,GOLD,05OCT2015, , ,GOLD,1,RL,1,13736,0,0,2200,27239,1,11001,13735, , , ,22 Aug 2015 ,22 Aug 2015 ,229170,NIL, ,42
229172,11,4,FUTCOM,SILVER,04SEP2015, , ,SILVER,1,RL,1,13736,0,0,60,36200,1,11001,13735, , , ,22 Aug 2015 ,22 Aug 2015 ,229172,NIL, ,2
229173,11,4,FUTCOM,GOLD,05OCT2015, , ,GOLD,1,RL,1,13736,0,1,400,27261,1,11001,13735, , , ,24 Aug 2015 10:05:29,24 Aug 2015 10:05:29,229173,NIL, ,2
229174,11,4,FUTCOM,GOLD,05OCT2015, , ,GOLD,1,RL,1,13736,0,0,400,27261,1,11001,13735, , , ,24 Aug 2015 10:05:29,24 Aug 2015 10:05:29,229174,NIL, ,1
229175,11,4,FUTCOM,SILVER,04SEP2015, , ,SILVER,1,RL,1,13736,0,1,60,35869,1,11001,13735, , , ,24 Aug 2015 10:05:47,24 Aug 2015 10:05:47,229175,NIL, ,2
229176,11,4,FUTCOM,SILVER,04SEP2015, , ,SILVER,1,RL,1,13736,0,0,60,35869,1,11001,13735, , , ,24 Aug 2015 10:05:47,24 Aug 2015 10:05:47,229176,NIL, ,1
229177,11,4,FUTCOM,GOLD,05OCT2015, , ,GOLD,1,RL,1,13736,0,0,600,27335,1,11001,13735, , , ,24 Aug 2015 10:32:32,24 Aug 2015 10:32:32,229177,NIL, ,2
229178,11,4,FUTCOM,GOLD,05OCT2015, , ,GOLD,1,RL,1,13736,0,1,600,27335,1,11001,13735, , , ,24 Aug 2015 10:32:32,24 Aug 2015 10:32:32,229178,NIL, ,1
229179,11,4,FUTCOM,IGL,27AUG2015, , ,IGL,1,RL,1,13736,0,1,10000,454.2,1,11001,13735, , , ,24 Aug 2015 10:34:20,24 Aug 2015 10:34:20,229179,NIL, ,12
229180,11,4,FUTCOM,IGL,27AUG2015, , ,IGL,1,RL,1,13736,0,0,10000,454.2,1,11001,13735, , , ,24 Aug 2015 10:34:20,24 Aug 2015 10:34:20,229180,NIL, ,1
229181,11,4,FUTCOM,IGL,27AUG2015, , ,IGL,1,RL,1,13736,0,1,10000,454.2,1,11001,13735, , , ,24 Aug 2015 10:34:29,24 Aug 2015 10:34:29,229181,NIL, ,42
229182,11,4,FUTCOM,IGL,27AUG2015, , ,IGL,1,RL,1,13736,0,0,10000,454.2,1,11001,13735, , , ,24 Aug 2015 10:34:29,24 Aug 2015 10:34:29,229182,NIL, ,1
229183,11,4,FUTCOM,ASIANPAINT,27AUG2015, , ,ASIANPAINT,1,RL,1,13736,0,1,5000,866.1,1,11001,13735, , , ,24 Aug 2015 12:46:33,24 Aug 2015 12:46:33,229183,NIL, ,21
229184,11,4,FUTCOM,ASIANPAINT,27AUG2015, , ,ASIANPAINT,1,RL,1,13736,0,0,5000,866.1,1,11001,13735, , , ,24 Aug 2015 12:46:33,24 Aug 2015 12:46:33,229184,NIL, ,1
229185,11,4,FUTCOM,lupin,27AUG2015, , ,lupin,1,RL,1,13736,0,1,5000,1846.75,1,11001,13735, , , ,24 Aug 2015 12:46:47,24 Aug 2015 12:46:47,229185,NIL, ,21
229186,11,4,FUTCOM,lupin,27AUG2015, , ,lupin,1,RL,1,13736,0,0,5000,1846.75,1,11001,13735, , , ,24 Aug 2015 12:46:47,24 Aug 2015 12:46:47,229186,NIL, ,1
229187,11,4,FUTCOM,GOLD,05OCT2015, , ,GOLD,1,RL,1,13736,0,1,200,27225,1,11001,13735, , , ,24 Aug 2015 12:47:35,24 Aug 2015 12:47:35,229187,NIL, ,2
229188,11,4,FUTCOM,GOLD,05OCT2015, , ,GOLD,1,RL,1,13736,0,0,200,27225,1,11001,13735, , , ,24 Aug 2015 12:47:35,24 Aug 2015 12:47:35,229188,NIL, ,1
229189,11,4,FUTCOM,ASIANPAINT,27AUG2015, , ,ASIANPAINT,1,RL,1,13736,0,0,5000,843.35,1,11001,13735, , , ,24 Aug 2015 15:35:48,24 Aug 2015 15:35:48,229189,NIL, ,21
229190,11,4,FUTCOM,ASIANPAINT,27AUG2015, , ,ASIANPAINT,1,RL,1,13736,0,1,5000,843.35,1,11001,13735, , , ,24 Aug 2015 15:35:48,24 Aug 2015 15:35:48,229190,NIL, ,1
229191,11,4,FUTCOM,sunpharma,27AUG2015, , ,sunpharma,1,RL,1,13736,0,1,1000,917.1,1,11001,13735, , , ,24 Aug 2015 16:17:04,24 Aug 2015 16:17:04,229191,NIL, ,54
229192,11,4,FUTCOM,sunpharma,27AUG2015, , ,sunpharma,1,RL,1,13736,0,0,1000,917.1,1,11001,13735, , , ,24 Aug 2015 16:17:04,24 Aug 2015 16:17:04,229192,NIL, ,1
229193,11,4,FUTCOM,mahindra,27AUG2015, , ,mahindra,1,RL,1,13736,0,1,1000,1266.35,1,11001,13735, , , ,24 Aug 2015 16:18:29,24 Aug 2015 16:18:29,229193,NIL, ,54
229194,11,4,FUTCOM,mahindra,27AUG2015, , ,mahindra,1,RL,1,13736,0,0,1000,126.35,1,11001,13735, , , ,24 Aug 2015 16:18:29,24 Aug 2015 16:18:29,229194,NIL, ,1
229195,11,4,FUTCOM,mahindra,27AUG2015, , ,mahindra,1,RL,1,13736,0,0,1000,1287.25,1,11001,13735, , , ,24 Aug 2015 16:17:30,24 Aug 2015 16:17:30,229195,NIL, ,54
229196,11,4,FUTCOM,mahindra,27AUG2015, , ,mahindra,1,RL,1,13736,0,1,1000,1287.25,1,11001,13735, , , ,24 Aug 2015 16:17:30,24 Aug 2015 16:17:30,229196,NIL, ,1
229197,11,4,FUTCOM,sunpharma,27AUG2015, , ,sunpharma,1,RL,1,13736,0,0,1000,938.1,1,11001,13735, , , ,24 Aug 2015 16:17:41,24 Aug 2015 16:17:41,229197,NIL, ,54
229198,11,4,FUTCOM,sunpharma,27AUG2015, , ,sunpharma,1,RL,1,13736,0,1,1000,938.1,1,11001,13735, , , ,24 Aug 2015 16:17:41,24 Aug 2015 16:17:41,229198,NIL, ,1
229199,11,4,FUTCOM,lupin,27AUG2015, , ,lupin,1,RL,1,13736,0,1,5000,1845,1,11001,13735, , , ,24 Aug 2015 16:22:22,24 Aug 2015 16:22:22,229199,NIL, ,44
229200,11,4,FUTCOM,lupin,27AUG2015, , ,lupin,1,RL,1,13736,0,0,5000,1845,1,11001,13735, , , ,24 Aug 2015 16:22:22,24 Aug 2015 16:22:22,229200,NIL, ,1
229283,11,4,FUTCOM,GOLD,05OCT2015, , ,GOLD,1,RL,1,13736,0,1,200,27314,1,11001,13735, , , ,24 Aug 2015 17:30:31,24 Aug 2015 17:30:31,229283,NIL, ,2
229284,11,4,FUTCOM,GOLD,05OCT2015, , ,GOLD,1,RL,1,13736,0,0,200,27314,1,11001,13735, , , ,24 Aug 2015 17:30:31,24 Aug 2015 17:30:31,229284,NIL, ,1
229285,11,4,FUTCOM,GOLD,05OCT2015, , ,GOLD,1,RL,1,13736,0,1,200,27254,1,11001,13735, , , ,24 Aug 2015 17:31:00,24 Aug 2015 17:31:00,229285,NIL, ,42
229286,11,4,FUTCOM,GOLD,05OCT2015, , ,GOLD,1,RL,1,13736,0,0,200,27254,1,11001,13735, , , ,24 Aug 2015 17:31:00,24 Aug 2015 17:31:00,229286,NIL, ,1
229287,11,4,FUTCOM,GOLD,05OCT2015, , ,GOLD,1,RL,1,13736,0,0,200,27471,1,11001,13735, , , ,24 Aug 2015 17:36:33,24 Aug 2015 17:36:33,229287,NIL, ,2
229288,11,4,FUTCOM,GOLD,05OCT2015, , ,GOLD,1,RL,1,13736,0,1,200,27471,1,11001,13735, , , ,24 Aug 2015 17:36:33,24 Aug 2015 17:36:33,229288,NIL, ,1
229289,11,4,FUTCOM,SILVER,04SEP2015, , ,SILVER,1,RL,1,13736,0,1,90,35004,1,11001,13735, , , ,24 Aug 2015 18:40:42,24 Aug 2015 18:40:42,229289,NIL, ,32
229290,11,4,FUTCOM,SILVER,04SEP2015, , ,SILVER,1,RL,1,13736,0,0,90,35004,1,11001,13735, , , ,24 Aug 2015 18:40:42,24 Aug 2015 18:40:42,229290,NIL, ,1
229291,11,4,FUTCOM,GOLD,05OCT2015, , ,GOLD,1,RL,1,13736,0,0,200,27488,1,11001,13735, , , ,24 Aug 2015 20:52:45,24 Aug 2015 20:52:45,229291,NIL, ,2
229292,11,4,FUTCOM,GOLD,05OCT2015, , ,GOLD,1,RL,1,13736,0,1,200,27488,1,11001,13735, , , ,24 Aug 2015 20:52:45,24 Aug 2015 20:52:45,229292,NIL, ,1
229293,11,4,FUTCOM,GOLD,05OCT2015, , ,GOLD,1,RL,1,13736,0,0,200,27605,1,11001,13735, , , ,24 Aug 2015 20:52:54,24 Aug 2015 20:52:54,229293,NIL, ,2
229294,11,4,FUTCOM,GOLD,05OCT2015, , ,GOLD,1,RL,1,13736,0,1,200,27605,1,11001,13735, , , ,24 Aug 2015 20:52:54,24 Aug 2015 20:52:54,229294,NIL, ,1
229295,11,4,FUTCOM,COPPER,30JUN2015, , ,COPPER,1,RL,1,13736,0,0,5000,333.2,1,11001,13735, , , ,24 Aug 2015 21:04:14,24 Aug 2015 21:04:14,229295,NIL, ,12
229296,11,4,FUTCOM,COPPER,30JUN2015, , ,COPPER,1,RL,1,13736,0,1,5000,333.2,1,11001,13735, , , ,24 Aug 2015 21:04:14,24 Aug 2015 21:04:14,229296,NIL, ,1
229297,11,4,FUTCOM,GOLD,05OCT2015, , ,GOLD,1,RL,1,13736,0,1,200,27480,1,11001,13735, , , ,24 Aug 2015 21:28:35,24 Aug 2015 21:28:35,229297,NIL, ,2
229298,11,4,FUTCOM,GOLD,05OCT2015, , ,GOLD,1,RL,1,13736,0,0,200,27480,1,11001,13735, , , ,24 Aug 2015 21:28:35,24 Aug 2015 21:28:35,229298,NIL, ,1
229299,11,4,FUTCOM,LEAD,30JUN2015, , ,LEAD,1,RL,1,13736,0,0,10000,111.3,1,11001,13735, , , ,24 Aug 2015 23:35:57,24 Aug 2015 23:35:57,229299,NIL, ,2
229300,11,4,FUTCOM,LEAD,30JUN2015, , ,LEAD,1,RL,1,13736,0,1,10000,111.3,1,11001,13735, , , ,24 Aug 2015 23:35:57,24 Aug 2015 23:35:57,229300,NIL, ,1
229317,11,4,FUTCOM,canbk,27AUG2015, , ,canbk,1,RL,1,13736,0,1,3000,289.5,1,11001,13735, , , ,25 Aug 2015 09:35:39,25 Aug 2015 09:35:39,229317,NIL, ,42
229318,11,4,FUTCOM,canbk,27AUG2015, , ,canbk,1,RL,1,13736,0,0,3000,289.5,1,11001,13735, , , ,25 Aug 2015 09:35:39,25 Aug 2015 09:35:39,229318,NIL, ,1
229319,11,4,FUTCOM,canbk,27AUG2015, , ,canbk,1,RL,1,13736,0,1,3000,289.5,1,11001,13735, , , ,25 Aug 2015 09:35:47,25 Aug 2015 09:35:47,229319,NIL, ,12
229320,11,4,FUTCOM,canbk,27AUG2015, , ,canbk,1,RL,1,13736,0,0,3000,289.5,1,11001,13735, , , ,25 Aug 2015 09:35:47,25 Aug 2015 09:35:47,229320,NIL, ,1
229321,11,4,FUTCOM,CIPLA,27AUG2015, , ,CIPLA,1,RL,1,13736,0,1,5000,680,1,11001,13735, , , ,24 Aug 2015 09:36:57,24 Aug 2015 09:36:57,229321,NIL, ,44
229322,11,4,FUTCOM,CIPLA,27AUG2015, , ,CIPLA,1,RL,1,13736,0,0,5000,680,1,11001,13735, , , ,24 Aug 2015 09:36:57,24 Aug 2015 09:36:57,229322,NIL, ,1
229323,11,4,FUTCOM,sunpharma,27AUG2015, , ,sunpharma,1,RL,1,13736,0,1,5000,922.8,1,11001,13735, , , ,24 Aug 2015 09:37:12,24 Aug 2015 09:37:12,229323,NIL, ,44
229324,11,4,FUTCOM,sunpharma,27AUG2015, , ,sunpharma,1,RL,1,13736,0,0,5000,922.8,1,11001,13735, , , ,24 Aug 2015 09:37:12,24 Aug 2015 09:37:12,229324,NIL, ,1
229325,11,4,FUTCOM,voltas,27AUG2015, , ,voltas,1,RL,1,13736,0,1,5000,271,1,11001,13735, , , ,24 Aug 2015 09:37:24,24 Aug 2015 09:37:24,229325,NIL, ,44
229326,11,4,FUTCOM,voltas,27AUG2015, , ,voltas,1,RL,1,13736,0,0,5000,271,1,11001,13735, , , ,24 Aug 2015 09:37:24,24 Aug 2015 09:37:24,229326,NIL, ,1
229327,11,4,FUTCOM,ARVIND,27AUG2015, , ,ARVIND,1,RL,1,13736,0,1,500,247.7,1,11001,13735, , , ,25 Aug 2015 09:51:8,25 Aug 2015 09:51:8,229327,NIL, ,54
229328,11,4,FUTCOM,ARVIND,27AUG2015, , ,ARVIND,1,RL,1,13736,0,0,500,247.7,1,11001,13735, , , ,25 Aug 2015 09:51:8,25 Aug 2015 09:51:8,229328,NIL, ,1
229329,11,4,FUTCOM,nifty,27AUG2015, , ,nifty,1,RL,1,13736,0,1,300,7823.5,1,11001,13735, , , ,25 Aug 2015 09:51:33,25 Aug 2015 09:51:33,229329,NIL, ,54
229330,11,4,FUTCOM,nifty,27AUG2015, , ,nifty,1,RL,1,13736,0,0,300,7823.5,1,11001,13735, , , ,25 Aug 2015 09:51:33,25 Aug 2015 09:51:33,229330,NIL, ,1
229331,11,4,FUTCOM,nifty,27AUG2015, , ,nifty,1,RL,1,13736,0,0,300,7828.1,1,11001,13735, , , ,25 Aug 2015 09:51:54,25 Aug 2015 09:51:54,229331,NIL, ,54
229332,11,4,FUTCOM,nifty,27AUG2015, , ,nifty,1,RL,1,13736,0,1,300,7828.1,1,11001,13735, , , ,25 Aug 2015 09:51:54,25 Aug 2015 09:51:54,229332,NIL, ,1
229333,11,4,FUTCOM,HINDZINC,27AUG2015, , ,HINDZINC,1,RL,1,13736,0,0,10000,121,1,11001,13735, , , ,25 Aug 2015 09:58:16,25 Aug 2015 09:58:16,229333,NIL, ,42
229334,11,4,FUTCOM,HINDZINC,27AUG2015, , ,HINDZINC,1,RL,1,13736,0,1,10000,121,1,11001,13735, , , ,25 Aug 2015 09:58:16,25 Aug 2015 09:58:16,229334,NIL, ,1
229335,11,4,FUTCOM,HINDZINC,27AUG2015, , ,HINDZINC,1,RL,1,13736,0,0,10000,121,1,11001,13735, , , ,25 Aug 2015 09:58:22,25 Aug 2015 09:58:22,229335,NIL, ,12
229336,11,4,FUTCOM,HINDZINC,27AUG2015, , ,HINDZINC,1,RL,1,13736,0,1,10000,121,1,11001,13735, , , ,25 Aug 2015 09:58:22,25 Aug 2015 09:58:22,229336,NIL, ,1
229337,11,4,FUTCOM,GOLD,05OCT2015, , ,GOLD,1,RL,1,13736,0,0,200,27253,1,11001,13735, , , ,25 Aug 2015 10:34:01,25 Aug 2015 10:34:01,229337,NIL, ,2
229338,11,4,FUTCOM,GOLD,05OCT2015, , ,GOLD,1,RL,1,13736,0,1,200,27253,1,11001,13735, , , ,25 Aug 2015 10:34:01,25 Aug 2015 10:34:01,229338,NIL, ,1
229339,11,4,FUTCOM,centuryt,27AUG2015, , ,centuryt,1,RL,1,13736,0,0,3000,521.95,1,11001,13735, , , ,25 Aug 2015 12:09:34,25 Aug 2015 12:09:34,229339,NIL, ,12
229340,11,4,FUTCOM,centuryt,27AUG2015, , ,centuryt,1,RL,1,13736,0,1,3000,521.95,1,11001,13735, , , ,25 Aug 2015 12:09:34,25 Aug 2015 12:09:34,229340,NIL, ,1
229341,11,4,FUTCOM,centuryt,27AUG2015, , ,centuryt,1,RL,1,13736,0,0,3000,521.95,1,11001,13735, , , ,25 Aug 2015 12:09:53,25 Aug 2015 12:09:53,229341,NIL, ,42
229342,11,4,FUTCOM,centuryt,27AUG2015, , ,centuryt,1,RL,1,13736,0,1,3000,521.95,1,11001,13735, , , ,25 Aug 2015 12:09:53,25 Aug 2015 12:09:53,229342,NIL, ,1
229343,11,4,FUTCOM,centuryt,27AUG2015, , ,centuryt,1,RL,1,13736,0,0,5000,540.55,1,11001,13735, , , ,25 Aug 2015 12:20:13,25 Aug 2015 12:20:13,229343,NIL, ,42
229344,11,4,FUTCOM,centuryt,27AUG2015, , ,centuryt,1,RL,1,13736,0,1,5000,540.55,1,11001,13735, , , ,25 Aug 2015 12:20:13,25 Aug 2015 12:20:13,229344,NIL, ,1
229345,11,4,FUTCOM,centuryt,27AUG2015, , ,centuryt,1,RL,1,13736,0,0,5000,540.55,1,11001,13735, , , ,25 Aug 2015 12:20:21,25 Aug 2015 12:20:21,229345,NIL, ,12
229346,11,4,FUTCOM,centuryt,27AUG2015, , ,centuryt,1,RL,1,13736,0,1,5000,540.55,1,11001,13735, , , ,25 Aug 2015 12:20:21,25 Aug 2015 12:20:21,229346,NIL, ,1
229347,11,4,FUTCOM,HINDPETRO,27AUG2015, , ,HINDPETRO,1,RL,1,13736,0,1,10000,795.6,1,11001,13735, , , ,25 Aug 2015 13:16:51,25 Aug 2015 13:16:51,229347,NIL, ,12
229348,11,4,FUTCOM,HINDPETRO,27AUG2015, , ,HINDPETRO,1,RL,1,13736,0,0,10000,795.6,1,11001,13735, , , ,25 Aug 2015 13:16:51,25 Aug 2015 13:16:51,229348,NIL, ,1
229349,11,4,FUTCOM,HINDPETRO,27AUG2015, , ,HINDPETRO,1,RL,1,13736,0,1,10000,795.6,1,11001,13735, , , ,25 Aug 2015 13:16:56,25 Aug 2015 13:16:56,229349,NIL, ,42
229350,11,4,FUTCOM,HINDPETRO,27AUG2015, , ,HINDPETRO,1,RL,1,13736,0,0,10000,795.6,1,11001,13735, , , ,25 Aug 2015 13:16:56,25 Aug 2015 13:16:56,229350,NIL, ,1
229351,11,4,FUTCOM,HINLVR,27AUG2015, , ,HINLVR,1,RL,1,13736,0,1,500,874.5,1,11001,13735, , , ,25 Aug 2015 13:27:15,25 Aug 2015 13:27:15,229351,NIL, ,54
229352,11,4,FUTCOM,HINLVR,27AUG2015, , ,HINLVR,1,RL,1,13736,0,0,500,874.5,1,11001,13735, , , ,25 Aug 2015 13:27:15,25 Aug 2015 13:27:15,229352,NIL, ,1
229353,11,4,FUTCOM,GOLD,05OCT2015, , ,GOLD,1,RL,1,13736,0,1,400,27040,1,11001,13735, , , ,25 Aug 2015 15:12:26,25 Aug 2015 15:12:26,229353,NIL, ,2
229354,11,4,FUTCOM,GOLD,05OCT2015, , ,GOLD,1,RL,1,13736,0,0,400,27040,1,11001,13735, , , ,25 Aug 2015 15:12:26,25 Aug 2015 15:12:26,229354,NIL, ,1
229355,11,4,FUTCOM,GOLD,05OCT2015, , ,GOLD,1,RL,1,13736,0,1,200,27022,1,11001,13735, , , ,25 Aug 2015 15:12:52,25 Aug 2015 15:12:52,229355,NIL, ,32
229356,11,4,FUTCOM,GOLD,05OCT2015, , ,GOLD,1,RL,1,13736,0,0,200,27022,1,11001,13735, , , ,25 Aug 2015 15:12:52,25 Aug 2015 15:12:52,229356,NIL, ,1
229357,11,4,FUTCOM,ARVIND,27AUG2015, , ,ARVIND,1,RL,1,13736,0,0,500,263.35,1,11001,13735, , , ,25 Aug 2015 15:28:08,25 Aug 2015 15:28:08,229357,NIL, ,54
229358,11,4,FUTCOM,ARVIND,27AUG2015, , ,ARVIND,1,RL,1,13736,0,1,500,263.35,1,11001,13735, , , ,25 Aug 2015 15:28:08,25 Aug 2015 15:28:08,229358,NIL, ,1
229437,11,4,FUTCOM,LEAD,30JUN2015, , ,LEAD,1,RL,1,13736,0,1,10000,110.5,1,11001,13735, , , ,25 Aug 2015 17:20:05,25 Aug 2015 17:20:05,229437,NIL, ,2
229438,11,4,FUTCOM,LEAD,30JUN2015, , ,LEAD,1,RL,1,13736,0,0,10000,110.5,1,11001,13735, , , ,25 Aug 2015 17:20:05,25 Aug 2015 17:20:05,229438,NIL, ,1
229439,11,4,FUTCOM,LEAD,30JUN2015, , ,LEAD,1,RL,1,13736,0,0,30000,111.3,1,11001,13735, , , ,25 Aug 2015 17:20:18,25 Aug 2015 17:20:18,229439,NIL, ,2
229440,11,4,FUTCOM,LEAD,30JUN2015, , ,LEAD,1,RL,1,13736,0,1,30000,111.3,1,11001,13735, , , ,25 Aug 2015 17:20:18,25 Aug 2015 17:20:18,229440,NIL, ,1
229441,11,4,FUTCOM,GOLD,05OCT2015, , ,GOLD,1,RL,1,13736,0,1,100,26721,1,11001,13735, , , ,25 Aug 2015 23:34:45,25 Aug 2015 23:34:45,229441,NIL, ,55
229442,11,4,FUTCOM,GOLD,05OCT2015, , ,GOLD,1,RL,1,13736,0,0,100,26721,1,11001,13735, , , ,25 Aug 2015 23:34:45,25 Aug 2015 23:34:45,229442,NIL, ,1
229459,11,4,FUTCOM,centuryt,27AUG2015, , ,centuryt,1,RL,1,13736,0,0,8000,546.55,1,11001,13735, , , ,26 Aug 2015 09:53:22,26 Aug 2015 09:53:22,229459,NIL, ,12
229460,11,4,FUTCOM,centuryt,27AUG2015, , ,centuryt,1,RL,1,13736,0,1,8000,546.55,1,11001,13735, , , ,26 Aug 2015 09:53:22,26 Aug 2015 09:53:22,229460,NIL, ,1
229461,11,4,FUTCOM,centuryt,27AUG2015, , ,centuryt,1,RL,1,13736,0,0,2000,546.55,1,11001,13735, , , ,26 Aug 2015 09:53:34,26 Aug 2015 09:53:34,229461,NIL, ,42
229462,11,4,FUTCOM,centuryt,27AUG2015, , ,centuryt,1,RL,1,13736,0,1,2000,546.55,1,11001,13735, , , ,26 Aug 2015 09:53:34,26 Aug 2015 09:53:34,229462,NIL, ,1
229463,11,4,FUTCOM,centuryt,27AUG2015, , ,centuryt,1,RL,1,13736,0,0,6000,546.55,1,11001,13735, , , ,26 Aug 2015 09:54:52,26 Aug 2015 09:54:52,229463,NIL, ,8
229464,11,4,FUTCOM,centuryt,27AUG2015, , ,centuryt,1,RL,1,13736,0,1,6000,546.55,1,11001,13735, , , ,26 Aug 2015 09:54:52,26 Aug 2015 09:54:52,229464,NIL, ,1
229465,11,4,FUTCOM,jswsteel,27AUG2015, , ,jswsteel,1,RL,1,13736,0,1,10000,882.75,1,11001,13735, , , ,26 Aug 2015 10:27:47,26 Aug 2015 10:27:47,229465,NIL, ,12
229466,11,4,FUTCOM,jswsteel,27AUG2015, , ,jswsteel,1,RL,1,13736,0,0,10000,882.75,1,11001,13735, , , ,26 Aug 2015 10:27:47,26 Aug 2015 10:27:47,229466,NIL, ,1
229467,11,4,FUTCOM,jswsteel,27AUG2015, , ,jswsteel,1,RL,1,13736,0,1,10000,882.75,1,11001,13735, , , ,26 Aug 2015 10:27:52,26 Aug 2015 10:27:52,229467,NIL, ,42
229468,11,4,FUTCOM,jswsteel,27AUG2015, , ,jswsteel,1,RL,1,13736,0,0,10000,882.75,1,11001,13735, , , ,26 Aug 2015 10:27:52,26 Aug 2015 10:27:52,229468,NIL, ,1
229469,11,4,FUTCOM,acc,27AUG2015, , ,acc,1,RL,1,13736,0,0,5000,1373.2,1,11001,13735, , , ,26 Aug 2015 10:32:18,26 Aug 2015 10:32:18,229469,NIL, ,42
229470,11,4,FUTCOM,acc,27AUG2015, , ,acc,1,RL,1,13736,0,1,5000,1373.2,1,11001,13735, , , ,26 Aug 2015 10:32:18,26 Aug 2015 10:32:18,229470,NIL, ,1
229471,11,4,FUTCOM,acc,27AUG2015, , ,acc,1,RL,1,13736,0,0,5000,1373.2,1,11001,13735, , , ,26 Aug 2015 10:32:23,26 Aug 2015 10:32:23,229471,NIL, ,12
229472,11,4,FUTCOM,acc,27AUG2015, , ,acc,1,RL,1,13736,0,1,5000,1373.2,1,11001,13735, , , ,26 Aug 2015 10:32:23,26 Aug 2015 10:32:23,229472,NIL, ,1
229473,11,4,FUTCOM,LEAD,30JUN2015, , ,LEAD,1,RL,1,13736,0,1,30000,110.25,1,11001,13735, , , ,26 Aug 2015 11:54:19,26 Aug 2015 11:54:19,229473,NIL, ,2
229474,11,4,FUTCOM,LEAD,30JUN2015, , ,LEAD,1,RL,1,13736,0,0,30000,110.25,1,11001,13735, , , ,26 Aug 2015 11:54:19,26 Aug 2015 11:54:19,229474,NIL, ,1
229475,11,4,FUTCOM,mahindra,27AUG2015, , ,mahindra,1,RL,1,13736,0,1,2500,1241,1,11001,13735, , , ,26 Aug 2015 12:31:06,26 Aug 2015 12:31:06,229475,NIL, ,12
229476,11,4,FUTCOM,mahindra,27AUG2015, , ,mahindra,1,RL,1,13736,0,0,2500,1241,1,11001,13735, , , ,26 Aug 2015 12:31:06,26 Aug 2015 12:31:06,229476,NIL, ,1
229477,11,4,FUTCOM,mahindra,27AUG2015, , ,mahindra,1,RL,1,13736,0,1,2500,1241,1,11001,13735, , , ,26 Aug 2015 12:31:12,26 Aug 2015 12:31:12,229477,NIL, ,42
229478,11,4,FUTCOM,mahindra,27AUG2015, , ,mahindra,1,RL,1,13736,0,0,2500,1241,1,11001,13735, , , ,26 Aug 2015 12:31:12,26 Aug 2015 12:31:12,229478,NIL, ,1
229479,11,4,FUTCOM,SILVER,04SEP2015, , ,SILVER,1,RL,1,13736,0,0,120,34452,1,11001,13735, , , ,26 Aug 2015 12:35:17,26 Aug 2015 12:35:17,229479,NIL, ,2
229480,11,4,FUTCOM,SILVER,04SEP2015, , ,SILVER,1,RL,1,13736,0,1,120,34452,1,11001,13735, , , ,26 Aug 2015 12:35:17,26 Aug 2015 12:35:17,229480,NIL, ,1
229481,11,4,FUTCOM,nifty,27AUG2015, , ,nifty,1,RL,1,13736,0,1,200,7817,1,11001,13735, , , ,26 Aug 2015 14:45:52,26 Aug 2015 14:45:52,229481,NIL, ,54
229482,11,4,FUTCOM,nifty,27AUG2015, , ,nifty,1,RL,1,13736,0,0,200,7817,1,11001,13735, , , ,26 Aug 2015 14:45:52,26 Aug 2015 14:45:52,229482,NIL, ,1
229483,11,4,FUTCOM,nifty,27AUG2015, , ,nifty,1,RL,1,13736,0,0,200,7830.95,1,11001,13735, , , ,26 Aug 2015 14:46:07,26 Aug 2015 14:46:07,229483,NIL, ,54
229484,11,4,FUTCOM,nifty,27AUG2015, , ,nifty,1,RL,1,13736,0,1,200,7830.95,1,11001,13735, , , ,26 Aug 2015 14:46:07,26 Aug 2015 14:46:07,229484,NIL, ,1
229485,11,4,FUTCOM,centuryt,27AUG2015, , ,centuryt,1,RL,1,13736,0,1,6000,546.55,1,11001,13735, , , ,26 Aug 2015 15:26:41,26 Aug 2015 15:26:41,229485,NIL, ,8
229486,11,4,FUTCOM,centuryt,27AUG2015, , ,centuryt,1,RL,1,13736,0,0,6000,546.55,1,11001,13735, , , ,26 Aug 2015 15:26:41,26 Aug 2015 15:26:41,229486,NIL, ,1
229487,11,4,FUTCOM,GOLD,05OCT2015, , ,GOLD,1,RL,1,13736,0,0,200,26800,1,11001,13735, , , ,26 Aug 2015 15:36:18,26 Aug 2015 15:36:18,229487,NIL, ,2
229488,11,4,FUTCOM,GOLD,05OCT2015, , ,GOLD,1,RL,1,13736,0,1,200,26800,1,11001,13735, , , ,26 Aug 2015 15:36:18,26 Aug 2015 15:36:18,229488,NIL, ,1
229553,11,4,FUTCOM,GOLD,05OCT2015, , ,GOLD,1,RL,1,13736,0,1,200,26665,1,11001,13735, , , ,26 Aug 2015 16:36:58,26 Aug 2015 16:36:58,229553,NIL, ,2
229554,11,4,FUTCOM,GOLD,05OCT2015, , ,GOLD,1,RL,1,13736,0,0,200,26665,1,11001,13735, , , ,26 Aug 2015 16:36:58,26 Aug 2015 16:36:58,229554,NIL, ,1
229555,11,4,FUTCOM,SILVER,04SEP2015, , ,SILVER,1,RL,1,13736,0,1,120,34360,1,11001,13735, , , ,26 Aug 2015 16:37:12,26 Aug 2015 16:37:12,229555,NIL, ,2
229556,11,4,FUTCOM,SILVER,04SEP2015, , ,SILVER,1,RL,1,13736,0,0,120,34360,1,11001,13735, , , ,26 Aug 2015 16:37:12,26 Aug 2015 16:37:12,229556,NIL, ,1
229557,11,4,FUTCOM,SILVER,04SEP2015, , ,SILVER,1,RL,1,13736,0,1,60,34351,1,11001,13735, , , ,26 Aug 2015 16:37:22,26 Aug 2015 16:37:22,229557,NIL, ,2
229558,11,4,FUTCOM,SILVER,04SEP2015, , ,SILVER,1,RL,1,13736,0,0,60,34351,1,11001,13735, , , ,26 Aug 2015 16:37:22,26 Aug 2015 16:37:22,229558,NIL, ,1
229559,11,4,FUTCOM,SILVER,04SEP2015, , ,SILVER,1,RL,1,13736,0,0,60,34030,1,11001,13735, , , ,26 Aug 2015 21:7:40,26 Aug 2015 21:7:40,229559,NIL, ,2
229560,11,4,FUTCOM,SILVER,04SEP2015, , ,SILVER,1,RL,1,13736,0,1,60,36030,1,11001,13735, , , ,26 Aug 2015 21:7:40,26 Aug 2015 21:7:40,229560,NIL, ,1
229561,11,4,FUTCOM,GOLD,05OCT2015, , ,GOLD,1,RL,1,13736,0,1,200,26612,1,11001,13735, , , ,26 Aug 2015 16:54:21,26 Aug 2015 16:54:21,229561,NIL, ,32
229562,11,4,FUTCOM,GOLD,05OCT2015, , ,GOLD,1,RL,1,13736,0,0,200,26612,1,11001,13735, , , ,26 Aug 2015 16:54:21,26 Aug 2015 16:54:21,229562,NIL, ,1
229563,11,4,FUTCOM,GOLD,05OCT2015, , ,GOLD,1,RL,1,13736,0,0,100,26599,1,11001,13735, , , ,26 Aug 2015 16:58:16,26 Aug 2015 16:58:16,229563,NIL, ,2
229564,11,4,FUTCOM,GOLD,05OCT2015, , ,GOLD,1,RL,1,13736,0,1,100,26599,1,11001,13735, , , ,26 Aug 2015 16:58:16,26 Aug 2015 16:58:16,229564,NIL, ,1
229565,11,4,FUTCOM,SILVER,04SEP2015, , ,SILVER,1,RL,1,13736,0,0,30,34090,1,11001,13735, , , ,26 Aug 2015 16:58:27,26 Aug 2015 16:58:27,229565,NIL, ,2
229566,11,4,FUTCOM,SILVER,04SEP2015, , ,SILVER,1,RL,1,13736,0,1,30,34090,1,11001,13735, , , ,26 Aug 2015 16:58:27,26 Aug 2015 16:58:27,229566,NIL, ,1
229567,11,4,FUTCOM,SILVER,04SEP2015, , ,SILVER,1,RL,1,13736,0,1,60,33895,1,11001,13735, , , ,26 Aug 2015 18:35:43,26 Aug 2015 18:35:43,229567,NIL, ,32
229568,11,4,FUTCOM,SILVER,04SEP2015, , ,SILVER,1,RL,1,13736,0,0,60,33895,1,11001,13735, , , ,26 Aug 2015 18:35:43,26 Aug 2015 18:35:43,229568,NIL, ,1
229569,11,4,FUTCOM,GOLD,05OCT2015, , ,GOLD,1,RL,1,13736,0,1,100,26477,1,11001,13735, , , ,26 Aug 2015 18:13:17,26 Aug 2015 18:13:17,229569,NIL, ,2
229570,11,4,FUTCOM,GOLD,05OCT2015, , ,GOLD,1,RL,1,13736,0,0,100,26477,1,11001,13735, , , ,26 Aug 2015 18:13:17,26 Aug 2015 18:13:17,229570,NIL, ,1
229571,11,4,FUTCOM,SILVER,04SEP2015, , ,SILVER,1,RL,1,13736,0,1,30,33630,1,11001,13735, , , ,26 Aug 2015 18:13:25,26 Aug 2015 18:13:25,229571,NIL, ,2
229572,11,4,FUTCOM,SILVER,04SEP2015, , ,SILVER,1,RL,1,13736,0,0,30,33630,1,11001,13735, , , ,26 Aug 2015 18:13:25,26 Aug 2015 18:13:25,229572,NIL, ,1
229573,11,4,FUTCOM,SILVER,04SEP2015, , ,SILVER,1,RL,1,13736,0,1,30,33680,1,11001,13735, , , ,26 Aug 2015 18:14:44,26 Aug 2015 18:14:44,229573,NIL, ,2
229574,11,4,FUTCOM,SILVER,04SEP2015, , ,SILVER,1,RL,1,13736,0,0,30,33680,1,11001,13735, , , ,26 Aug 2015 18:14:44,26 Aug 2015 18:14:44,229574,NIL, ,1
229575,11,4,FUTCOM,GOLD,05OCT2015, , ,GOLD,1,RL,1,13736,0,1,2000,26485,1,11001,13735, , , ,26 Aug 2015 18:45:57,26 Aug 2015 18:45:57,229575,NIL, ,21
229576,11,4,FUTCOM,GOLD,05OCT2015, , ,GOLD,1,RL,1,13736,0,0,2000,26485,1,11001,13735, , , ,26 Aug 2015 18:45:57,26 Aug 2015 18:45:57,229576,NIL, ,1
229577,11,4,FUTCOM,SILVER,04SEP2015, , ,SILVER,1,RL,1,13736,0,0,30,33540,1,11001,13735, , , ,26 Aug 2015 18:46:35,26 Aug 2015 18:46:35,229577,NIL, ,2
229578,11,4,FUTCOM,SILVER,04SEP2015, , ,SILVER,1,RL,1,13736,0,1,30,33540,1,11001,13735, , , ,26 Aug 2015 18:46:35,26 Aug 2015 18:46:35,229578,NIL, ,1
229579,11,4,FUTCOM,GOLD,05OCT2015, , ,GOLD,1,RL,1,13736,0,1,600,26375,1,11001,13735, , , ,26 Aug 2015 21:09:00,26 Aug 2015 21:09:00,229579,NIL, ,2
229580,11,4,FUTCOM,GOLD,05OCT2015, , ,GOLD,1,RL,1,13736,0,0,600,26375,1,11001,13735, , , ,26 Aug 2015 21:09:00,26 Aug 2015 21:09:00,229580,NIL, ,1
229581,11,4,FUTCOM,GOLD,05OCT2015, , ,GOLD,1,RL,1,13736,0,0,600,26392,1,11001,13735, , , ,26 Aug 2015 23:09:20,26 Aug 2015 23:09:20,229581,NIL, ,2
229582,11,4,FUTCOM,GOLD,05OCT2015, , ,GOLD,1,RL,1,13736,0,1,600,26392,1,11001,13735, , , ,26 Aug 2015 23:09:20,26 Aug 2015 23:09:20,229582,NIL, ,1
229583,11,4,FUTCOM,GOLD,05OCT2015, , ,GOLD,1,RL,1,13736,0,1,2000,26493,1,11001,13735, , , ,26 Aug 2015 23:24:28,26 Aug 2015 23:24:28,229583,NIL, ,42
229584,11,4,FUTCOM,GOLD,05OCT2015, , ,GOLD,1,RL,1,13736,0,0,2000,26493,1,11001,13735, , , ,26 Aug 2015 23:24:28,26 Aug 2015 23:24:28,229584,NIL, ,1
229593,11,4,FUTCOM,hdfcBank,27AUG2015, , ,hdfcBank,1,RL,1,13736,0,1,5000,1021.2,1,11001,13735, , , ,27 Aug 2015 09:46:17,27 Aug 2015 09:46:17,229593,NIL, ,12
229594,11,4,FUTCOM,hdfcBank,27AUG2015, , ,hdfcBank,1,RL,1,13736,0,0,5000,1021.2,1,11001,13735, , , ,27 Aug 2015 09:46:17,27 Aug 2015 09:46:17,229594,NIL, ,1
229595,11,4,FUTCOM,hdfc,27AUG2015, , ,hdfc,1,RL,1,13736,0,0,5000,1143.5,1,11001,13735, , , ,27 Aug 2015 09:46:53,27 Aug 2015 09:46:53,229595,NIL, ,12
229596,11,4,FUTCOM,hdfc,27AUG2015, , ,hdfc,1,RL,1,13736,0,1,5000,1143.5,1,11001,13735, , , ,27 Aug 2015 09:46:53,27 Aug 2015 09:46:53,229596,NIL, ,1
229597,11,4,FUTCOM,hdfc,27AUG2015, , ,hdfc,1,RL,1,13736,0,0,5000,1143.5,1,11001,13735, , , ,27 Aug 2015 09:47:09,27 Aug 2015 09:47:09,229597,NIL, ,42
229598,11,4,FUTCOM,hdfc,27AUG2015, , ,hdfc,1,RL,1,13736,0,1,5000,1143.5,1,11001,13735, , , ,27 Aug 2015 09:47:09,27 Aug 2015 09:47:09,229598,NIL, ,1
229599,11,4,FUTCOM,hdfcBank,27AUG2015, , ,hdfcBank,1,RL,1,13736,0,1,5000,1021.2,1,11001,13735, , , ,27 Aug 2015 09:47:37,27 Aug 2015 09:47:37,229599,NIL, ,42
229600,11,4,FUTCOM,hdfcBank,27AUG2015, , ,hdfcBank,1,RL,1,13736,0,0,5000,1021.2,1,11001,13735, , , ,27 Aug 2015 09:47:37,27 Aug 2015 09:47:37,229600,NIL, ,1
229601,11,4,FUTCOM,LEAD,30JUN2015, , ,LEAD,1,RL,1,13736,0,0,30000,109,1,11001,13735, , , ,27 Aug 2015 10:03:26,27 Aug 2015 10:03:26,229601,NIL, ,2
229602,11,4,FUTCOM,LEAD,30JUN2015, , ,LEAD,1,RL,1,13736,0,1,30000,109,1,11001,13735, , , ,27 Aug 2015 10:03:26,27 Aug 2015 10:03:26,229602,NIL, ,1
229603,11,4,FUTCOM,Rinfra,27AUG2015, , ,Rinfra,1,RL,1,13736,0,0,1000,334.1,1,11001,13735, , , ,27 Aug 2015 11:36:40,27 Aug 2015 11:36:40,229603,NIL, ,12
229604,11,4,FUTCOM,Rinfra,27AUG2015, , ,Rinfra,1,RL,1,13736,0,1,1000,334.1,1,11001,13735, , , ,27 Aug 2015 11:36:40,27 Aug 2015 11:36:40,229604,NIL, ,1
229605,11,4,FUTCOM,ARVIND,27AUG2015, , ,ARVIND,1,RL,1,13736,0,1,10000,266.5,1,11001,13735, , , ,27 Aug 2015 11:42:05,27 Aug 2015 11:42:05,229605,NIL, ,12
229606,11,4,FUTCOM,ARVIND,27AUG2015, , ,ARVIND,1,RL,1,13736,0,0,10000,266.5,1,11001,13735, , , ,27 Aug 2015 11:42:05,27 Aug 2015 11:42:05,229606,NIL, ,1
229607,11,4,FUTCOM,ARVIND,27AUG2015, , ,ARVIND,1,RL,1,13736,0,1,10000,266.5,1,11001,13735, , , ,27 Aug 2015 11:42:11,27 Aug 2015 11:42:11,229607,NIL, ,42
229608,11,4,FUTCOM,ARVIND,27AUG2015, , ,ARVIND,1,RL,1,13736,0,0,10000,266.5,1,11001,13735, , , ,27 Aug 2015 11:42:11,27 Aug 2015 11:42:11,229608,NIL, ,1
229609,11,4,FUTCOM,LIC,27AUG2015, , ,LIC,1,RL,1,13736,0,1,5000,442.6,1,11001,13735, , , ,27 Aug 2015 13:08:32,27 Aug 2015 13:08:32,229609,NIL, ,42
229610,11,4,FUTCOM,LIC,27AUG2015, , ,LIC,1,RL,1,13736,0,0,5000,442.6,1,11001,13735, , , ,27 Aug 2015 13:08:32,27 Aug 2015 13:08:32,229610,NIL, ,1
229611,11,4,FUTCOM,LIC,27AUG2015, , ,LIC,1,RL,1,13736,0,1,5000,442.6,1,11001,13735, , , ,27 Aug 2015 13:08:45,27 Aug 2015 13:08:45,229611,NIL, ,12
229612,11,4,FUTCOM,LIC,27AUG2015, , ,LIC,1,RL,1,13736,0,0,5000,442.6,1,11001,13735, , , ,27 Aug 2015 13:08:45,27 Aug 2015 13:08:45,229612,NIL, ,1
229613,11,4,FUTCOM,TATACHEM,27AUG2015, , ,TATACHEM,1,RL,1,13736,0,1,5000,409.6,1,11001,13735, , , ,27 Aug 2015 15:05:56,27 Aug 2015 15:05:56,229613,NIL, ,12
229614,11,4,FUTCOM,TATACHEM,27AUG2015, , ,TATACHEM,1,RL,1,13736,0,0,5000,409.6,1,11001,13735, , , ,27 Aug 2015 15:05:56,27 Aug 2015 15:05:56,229614,NIL, ,1
229615,11,4,FUTCOM,centuryt,27AUG2015, , ,centuryt,1,RL,1,13736,0,1,6000,567.8,1,11001,13735, , , ,27 Aug 2015 15:06:23,27 Aug 2015 15:06:23,229615,NIL, ,12
229616,11,4,FUTCOM,centuryt,27AUG2015, , ,centuryt,1,RL,1,13736,0,0,6000,567.8,1,11001,13735, , , ,27 Aug 2015 15:06:23,27 Aug 2015 15:06:23,229616,NIL, ,1
229617,11,4,FUTCOM,TATACHEM,27AUG2015, , ,TATACHEM,1,RL,1,13736,0,1,5000,409.6,1,11001,13735, , , ,27 Aug 2015 15:07:14,27 Aug 2015 15:07:14,229617,NIL, ,42
229618,11,4,FUTCOM,TATACHEM,27AUG2015, , ,TATACHEM,1,RL,1,13736,0,0,5000,409.6,1,11001,13735, , , ,27 Aug 2015 15:07:14,27 Aug 2015 15:07:14,229618,NIL, ,1
229619,11,4,FUTCOM,nifty,27AUG2015, , ,nifty,1,RL,1,13736,0,0,3000,7946.55,1,11001,13735, , , ,27 Aug 2015 15:10:09,27 Aug 2015 15:10:09,229619,NIL, ,44
229620,11,4,FUTCOM,nifty,27AUG2015, , ,nifty,1,RL,1,13736,0,1,3000,7946.55,1,11001,13735, , , ,27 Aug 2015 15:10:09,27 Aug 2015 15:10:09,229620,NIL, ,1
229621,11,4,FUTCOM,hdfc,27AUG2015, , ,hdfc,1,RL,1,13736,0,0,5000,1187.25,1,11001,13735, , , ,27 Aug 2015 15:10:24,27 Aug 2015 15:10:24,229621,NIL, ,44
229622,11,4,FUTCOM,hdfc,27AUG2015, , ,hdfc,1,RL,1,13736,0,1,5000,1187.25,1,11001,13735, , , ,27 Aug 2015 15:10:24,27 Aug 2015 15:10:24,229622,NIL, ,1
229623,11,4,FUTCOM,reliance,27AUG2015, , ,reliance,1,RL,1,13736,0,0,5000,876.75,1,11001,13735, , , ,27 Aug 2015 15:10:36,27 Aug 2015 15:10:36,229623,NIL, ,44
229624,11,4,FUTCOM,reliance,27AUG2015, , ,reliance,1,RL,1,13736,0,1,5000,876.75,1,11001,13735, , , ,27 Aug 2015 15:10:36,27 Aug 2015 15:10:36,229624,NIL, ,1
229625,11,4,FUTCOM,axis,27AUG2015, , ,axis,1,RL,1,13736,0,0,5000,507.15,1,11001,13735, , , ,27 Aug 2015 15:10:47,27 Aug 2015 15:10:47,229625,NIL, ,44
229626,11,4,FUTCOM,axis,27AUG2015, , ,axis,1,RL,1,13736,0,1,5000,507.15,1,11001,13735, , , ,27 Aug 2015 15:10:47,27 Aug 2015 15:10:47,229626,NIL, ,1
229627,11,4,FUTCOM,mahindra,27AUG2015, , ,mahindra,1,RL,1,13736,0,0,5000,1227.05,1,11001,13735, , , ,27 Aug 2015 15:10:58,27 Aug 2015 15:10:58,229627,NIL, ,44
229628,11,4,FUTCOM,mahindra,27AUG2015, , ,mahindra,1,RL,1,13736,0,1,5000,1227.05,1,11001,13735, , , ,27 Aug 2015 15:10:58,27 Aug 2015 15:10:58,229628,NIL, ,1
229629,11,4,FUTCOM,lt,27AUG2015, , ,lt,1,RL,1,13736,0,0,5000,1607.85,1,11001,13735, , , ,27 Aug 2015 15:11:27,27 Aug 2015 15:11:27,229629,NIL, ,44
229630,11,4,FUTCOM,lt,27AUG2015, , ,lt,1,RL,1,13736,0,1,5000,1607.85,1,11001,13735, , , ,27 Aug 2015 15:11:27,27 Aug 2015 15:11:27,229630,NIL, ,1
229631,11,4,FUTCOM,sunpharma,27AUG2015, , ,sunpharma,1,RL,1,13736,0,0,5000,897.35,1,11001,13735, , , ,27 Aug 2015 15:11:42,27 Aug 2015 15:11:42,229631,NIL, ,44
229632,11,4,FUTCOM,sunpharma,27AUG2015, , ,sunpharma,1,RL,1,13736,0,1,5000,897.35,1,11001,13735, , , ,27 Aug 2015 15:11:42,27 Aug 2015 15:11:42,229632,NIL, ,1
229633,11,4,FUTCOM,hdfcBank,27AUG2015, , ,hdfcBank,1,RL,1,13736,0,0,5000,1025.3,1,11001,13735, , , ,27 Aug 2015 15:11:55,27 Aug 2015 15:11:55,229633,NIL, ,44
229634,11,4,FUTCOM,hdfcBank,27AUG2015, , ,hdfcBank,1,RL,1,13736,0,1,5000,1025.3,1,11001,13735, , , ,27 Aug 2015 15:11:55,27 Aug 2015 15:11:55,229634,NIL, ,1
229635,11,4,FUTCOM,CIPLA,27AUG2015, , ,CIPLA,1,RL,1,13736,0,0,5000,662.6,1,11001,13735, , , ,27 Aug 2015 15:12:11,27 Aug 2015 15:12:11,229635,NIL, ,44
229636,11,4,FUTCOM,CIPLA,27AUG2015, , ,CIPLA,1,RL,1,13736,0,1,5000,662.6,1,11001,13735, , , ,27 Aug 2015 15:12:11,27 Aug 2015 15:12:11,229636,NIL, ,1
229637,11,4,FUTCOM,voltas,27AUG2015, , ,voltas,1,RL,1,13736,0,0,5000,278.75,1,11001,13735, , , ,27 Aug 2015 15:12:24,27 Aug 2015 15:12:24,229637,NIL, ,44
229638,11,4,FUTCOM,voltas,27AUG2015, , ,voltas,1,RL,1,13736,0,1,5000,278.75,1,11001,13735, , , ,27 Aug 2015 15:12:24,27 Aug 2015 15:12:24,229638,NIL, ,1
229639,11,4,FUTCOM,nifty,27AUG2015, , ,nifty,1,RL,1,13736,0,0,3000,7946.55,1,11001,13735, , , ,27 Aug 2015 15:12:43,27 Aug 2015 15:12:43,229639,NIL, ,21
229640,11,4,FUTCOM,nifty,27AUG2015, , ,nifty,1,RL,1,13736,0,1,3000,7946.55,1,11001,13735, , , ,27 Aug 2015 15:12:43,27 Aug 2015 15:12:43,229640,NIL, ,1
229641,11,4,FUTCOM,hdfc,27AUG2015, , ,hdfc,1,RL,1,13736,0,0,5000,1187.25,1,11001,13735, , , ,27 Aug 2015 15:12:58,27 Aug 2015 15:12:58,229641,NIL, ,21
229642,11,4,FUTCOM,hdfc,27AUG2015, , ,hdfc,1,RL,1,13736,0,1,5000,1187.25,1,11001,13735, , , ,27 Aug 2015 15:12:58,27 Aug 2015 15:12:58,229642,NIL, ,1
229643,11,4,FUTCOM,reliance,27AUG2015, , ,reliance,1,RL,1,13736,0,0,5000,876.75,1,11001,13735, , , ,27 Aug 2015 15:13:13,27 Aug 2015 15:13:13,229643,NIL, ,21
229644,11,4,FUTCOM,reliance,27AUG2015, , ,reliance,1,RL,1,13736,0,1,5000,876.75,1,11001,13735, , , ,27 Aug 2015 15:13:13,27 Aug 2015 15:13:13,229644,NIL, ,1
229645,11,4,FUTCOM,axis,27AUG2015, , ,axis,1,RL,1,13736,0,0,5000,507.15,1,11001,13735, , , ,27 Aug 2015 15:13:26,27 Aug 2015 15:13:26,229645,NIL, ,21
229646,11,4,FUTCOM,axis,27AUG2015, , ,axis,1,RL,1,13736,0,1,5000,507.15,1,11001,13735, , , ,27 Aug 2015 15:13:26,27 Aug 2015 15:13:26,229646,NIL, ,1
229647,11,4,FUTCOM,mahindra,27AUG2015, , ,mahindra,1,RL,1,13736,0,0,5000,1227.05,1,11001,13735, , , ,27 Aug 2015 15:13:40,27 Aug 2015 15:13:40,229647,NIL, ,21
229648,11,4,FUTCOM,mahindra,27AUG2015, , ,mahindra,1,RL,1,13736,0,1,5000,1227.05,1,11001,13735, , , ,27 Aug 2015 15:13:40,27 Aug 2015 15:13:40,229648,NIL, ,1
229649,11,4,FUTCOM,lt,27AUG2015, , ,lt,1,RL,1,13736,0,0,5000,1607.85,1,11001,13735, , , ,27 Aug 2015 15:13:51,27 Aug 2015 15:13:51,229649,NIL, ,21
229650,11,4,FUTCOM,lt,27AUG2015, , ,lt,1,RL,1,13736,0,1,5000,1607.85,1,11001,13735, , , ,27 Aug 2015 15:13:51,27 Aug 2015 15:13:51,229650,NIL, ,1
229651,11,4,FUTCOM,sunpharma,27AUG2015, , ,sunpharma,1,RL,1,13736,0,0,5000,897.35,1,11001,13735, , , ,27 Aug 2015 15:14:02,27 Aug 2015 15:14:02,229651,NIL, ,21
229652,11,4,FUTCOM,sunpharma,27AUG2015, , ,sunpharma,1,RL,1,13736,0,1,5000,897.35,1,11001,13735, , , ,27 Aug 2015 15:14:02,27 Aug 2015 15:14:02,229652,NIL, ,1
229653,11,4,FUTCOM,hdfcBank,27AUG2015, , ,hdfcBank,1,RL,1,13736,0,0,5000,1025.3,1,11001,13735, , , ,27 Aug 2015 15:14:18,27 Aug 2015 15:14:18,229653,NIL, ,21
229654,11,4,FUTCOM,hdfcBank,27AUG2015, , ,hdfcBank,1,RL,1,13736,0,1,5000,1025.3,1,11001,13735, , , ,27 Aug 2015 15:14:18,27 Aug 2015 15:14:18,229654,NIL, ,1
229655,11,4,FUTCOM,CIPLA,27AUG2015, , ,CIPLA,1,RL,1,13736,0,0,5000,662.6,1,11001,13735, , , ,27 Aug 2015 15:14:32,27 Aug 2015 15:14:32,229655,NIL, ,21
229656,11,4,FUTCOM,CIPLA,27AUG2015, , ,CIPLA,1,RL,1,13736,0,1,5000,662.6,1,11001,13735, , , ,27 Aug 2015 15:14:32,27 Aug 2015 15:14:32,229656,NIL, ,1
229657,11,4,FUTCOM,voltas,27AUG2015, , ,voltas,1,RL,1,13736,0,0,5000,278.75,1,11001,13735, , , ,27 Aug 2015 15:14:45,27 Aug 2015 15:14:45,229657,NIL, ,21
229658,11,4,FUTCOM,voltas,27AUG2015, , ,voltas,1,RL,1,13736,0,1,5000,278.75,1,11001,13735, , , ,27 Aug 2015 15:14:45,27 Aug 2015 15:14:45,229658,NIL, ,1
229659,11,4,FUTCOM,Rinfra,27AUG2015, , ,Rinfra,1,RL,1,13736,0,1,1000,353.1,1,11001,13735, , , ,27 Aug 2015 15:31:21,27 Aug 2015 15:31:21,229659,NIL, ,12
229660,11,4,FUTCOM,Rinfra,27AUG2015, , ,Rinfra,1,RL,1,13736,0,0,1000,353.1,1,11001,13735, , , ,27 Aug 2015 15:31:21,27 Aug 2015 15:31:21,229660,NIL, ,1
229661,11,4,FUTCOM,HINLVR,27AUG2015, , ,HINLVR,1,RL,1,13736,0,0,500,857.75,1,11001,13735, , , ,27 Aug 2015 15:58:02,27 Aug 2015 15:58:02,229661,NIL, ,54
229662,11,4,FUTCOM,HINLVR,27AUG2015, , ,HINLVR,1,RL,1,13736,0,1,500,857.75,1,11001,13735, , , ,27 Aug 2015 15:58:02,27 Aug 2015 15:58:02,229662,NIL, ,1
229663,11,4,FUTCOM,mahindra,24SEP2015, , ,mahindra,1,RL,1,13736,0,1,10000,1224.4,1,11001,13735, , , ,27 Aug 2015 16:50:16,27 Aug 2015 16:50:16,229663,NIL, ,12
229664,11,4,FUTCOM,mahindra,24SEP2015, , ,mahindra,1,RL,1,13736,0,0,10000,1224.4,1,11001,13735, , , ,27 Aug 2015 16:50:16,27 Aug 2015 16:50:16,229664,NIL, ,1
229665,11,4,FUTCOM,mahindra,24SEP2015, , ,mahindra,1,RL,1,13736,0,1,10000,1224.4,1,11001,13735, , , ,27 Aug 2015 16:50:27,27 Aug 2015 16:50:27,229665,NIL, ,8
229666,11,4,FUTCOM,mahindra,24SEP2015, , ,mahindra,1,RL,1,13736,0,0,10000,1224.4,1,11001,13735, , , ,27 Aug 2015 16:50:27,27 Aug 2015 16:50:27,229666,NIL, ,1
229671,11,4,FUTCOM,ZINC,30JUN2015, , ,ZINC,1,RL,1,13736,0,1,70000,112.9,1,11001,13735, , , ,27 Aug 2015 18:16:23,27 Aug 2015 18:16:23,229671,NIL, ,12
229672,11,4,FUTCOM,ZINC,30JUN2015, , ,ZINC,1,RL,1,13736,0,0,70000,112.9,1,11001,13735, , , ,27 Aug 2015 18:16:23,27 Aug 2015 18:16:23,229672,NIL, ,1
229673,11,4,FUTCOM,ZINC,30JUN2015, , ,ZINC,1,RL,1,13736,0,0,35000,112.95,1,11001,13735, , , ,27 Aug 2015 18:16:36,27 Aug 2015 18:16:36,229673,NIL, ,12
229674,11,4,FUTCOM,ZINC,30JUN2015, , ,ZINC,1,RL,1,13736,0,1,35000,112.95,1,11001,13735, , , ,27 Aug 2015 18:16:36,27 Aug 2015 18:16:36,229674,NIL, ,1
229675,11,4,FUTCOM,ZINC,30JUN2015, , ,ZINC,1,RL,1,13736,0,0,10000,113.6,1,11001,13735, , , ,27 Aug 2015 18:16:46,27 Aug 2015 18:16:46,229675,NIL, ,12
229676,11,4,FUTCOM,ZINC,30JUN2015, , ,ZINC,1,RL,1,13736,0,1,10000,113.6,1,11001,13735, , , ,27 Aug 2015 18:16:46,27 Aug 2015 18:16:46,229676,NIL, ,1
229677,11,4,FUTCOM,ZINC,30JUN2015, , ,ZINC,1,RL,1,13736,0,0,25000,114.25,1,11001,13735, , , ,27 Aug 2015 18:16:54,27 Aug 2015 18:16:54,229677,NIL, ,12
229678,11,4,FUTCOM,ZINC,30JUN2015, , ,ZINC,1,RL,1,13736,0,1,25000,114.25,1,11001,13735, , , ,27 Aug 2015 18:16:54,27 Aug 2015 18:16:54,229678,NIL, ,1
229679,11,4,FUTCOM,GOLD,05OCT2015, , ,GOLD,1,RL,1,13736,0,1,3000,26206,1,11001,13735, , , ,27 Aug 2015 20:02:36,27 Aug 2015 20:02:36,229679,NIL, ,12
229680,11,4,FUTCOM,GOLD,05OCT2015, , ,GOLD,1,RL,1,13736,0,0,3000,26206,1,11001,13735, , , ,27 Aug 2015 20:02:36,27 Aug 2015 20:02:36,229680,NIL, ,1
229681,11,4,FUTCOM,GOLD,05OCT2015, , ,GOLD,1,RL,1,13736,0,1,1000,26190,1,11001,13735, , , ,27 Aug 2015 22:51:45,27 Aug 2015 22:51:45,229681,NIL, ,8
229682,11,4,FUTCOM,GOLD,05OCT2015, , ,GOLD,1,RL,1,13736,0,0,1000,26190,1,11001,13735, , , ,27 Aug 2015 22:51:45,27 Aug 2015 22:51:45,229682,NIL, ,1
229683,11,4,FUTCOM,SILVER,04SEP2015, , ,SILVER,1,RL,1,13736,0,0,900,33844,1,11001,13735, , , ,27 Aug 2015 20:39:17,27 Aug 2015 20:39:17,229683,NIL, ,12
229684,11,4,FUTCOM,SILVER,04SEP2015, , ,SILVER,1,RL,1,13736,0,1,900,33844,1,11001,13735, , , ,27 Aug 2015 20:39:17,27 Aug 2015 20:39:17,229684,NIL, ,1
229685,11,4,FUTCOM,SILVER,04SEP2015, , ,SILVER,1,RL,1,13736,0,1,900,33931,1,11001,13735, , , ,27 Aug 2015 20:43:53,27 Aug 2015 20:43:53,229685,NIL, ,12
229686,11,4,FUTCOM,SILVER,04SEP2015, , ,SILVER,1,RL,1,13736,0,0,900,33931,1,11001,13735, , , ,27 Aug 2015 20:43:53,27 Aug 2015 20:43:53,229686,NIL, ,1
229687,11,4,FUTCOM,COPPER,30JUN2015, , ,COPPER,1,RL,1,13736,0,0,3000,340.35,1,11001,13735, , , ,27 Aug 2015 21:07:02,27 Aug 2015 21:07:02,229687,NIL, ,12
229688,11,4,FUTCOM,COPPER,30JUN2015, , ,COPPER,1,RL,1,13736,0,1,3000,340.35,1,11001,13735, , , ,27 Aug 2015 21:07:02,27 Aug 2015 21:07:02,229688,NIL, ,1
229689,11,4,FUTCOM,LEAD,30JUN2015, , ,LEAD,1,RL,1,13736,0,1,30000,110.6,1,11001,13735, , , ,27 Aug 2015 22:30:41,27 Aug 2015 22:30:41,229689,NIL, ,2
229690,11,4,FUTCOM,LEAD,30JUN2015, , ,LEAD,1,RL,1,13736,0,0,30000,110.6,1,11001,13735, , , ,27 Aug 2015 22:30:41,27 Aug 2015 22:30:41,229690,NIL, ,1
229691,11,4,FUTCOM,GOLD,05OCT2015, , ,GOLD,1,RL,1,13736,0,0,600,26332,1,11001,13735, , , ,27 Aug 2015 22:30:52,27 Aug 2015 22:30:52,229691,NIL, ,2
229692,11,4,FUTCOM,GOLD,05OCT2015, , ,GOLD,1,RL,1,13736,0,1,600,26332,1,11001,13735, , , ,27 Aug 2015 22:30:52,27 Aug 2015 22:30:52,229692,NIL, ,1
229693,11,4,FUTCOM,GOLD,05OCT2015, , ,GOLD,1,RL,1,13736,0,1,100,26329,1,11001,13735, , , ,27 Aug 2015 22:44:19,27 Aug 2015 22:44:19,229693,NIL, ,55
229694,11,4,FUTCOM,GOLD,05OCT2015, , ,GOLD,1,RL,1,13736,0,0,100,26329,1,11001,13735, , , ,27 Aug 2015 22:44:19,27 Aug 2015 22:44:19,229694,NIL, ,1
229695,11,4,FUTCOM,GOLD,05OCT2015, , ,GOLD,1,RL,1,13736,0,0,1000,26327,1,11001,13735, , , ,27 Aug 2015 10:37:14,27 Aug 2015 10:37:14,229695,NIL, ,8
229696,11,4,FUTCOM,GOLD,05OCT2015, , ,GOLD,1,RL,1,13736,0,1,1000,26390,1,11001,13735, , , ,27 Aug 2015 10:37:14,27 Aug 2015 10:37:14,229696,NIL, ,1
229697,11,4,FUTCOM,GOLD,05OCT2015, , ,GOLD,1,RL,1,13736,0,1,400,26291,1,11001,13735, , , ,27 Aug 2015 23:30:11,27 Aug 2015 23:30:11,229697,NIL, ,2
229698,11,4,FUTCOM,GOLD,05OCT2015, , ,GOLD,1,RL,1,13736,0,0,400,26291,1,11001,13735, , , ,27 Aug 2015 23:30:11,27 Aug 2015 23:30:11,229698,NIL, ,1
229699,11,4,FUTCOM,GOLD,05OCT2015, , ,GOLD,1,RL,1,13736,0,1,1000,26287,1,11001,13735, , , ,27 Aug 2015 23:32:06,27 Aug 2015 23:32:06,229699,NIL, ,8
229700,11,4,FUTCOM,GOLD,05OCT2015, , ,GOLD,1,RL,1,13736,0,0,1000,26287,1,11001,13735, , , ,27 Aug 2015 23:32:06,27 Aug 2015 23:32:06,229700,NIL, ,1
229715,11,4,FUTCOM,GOLD,05OCT2015, , ,GOLD,1,RL,1,13736,0,0,2000,26497,1,11001,13735, , , ,28 Aug 2015 10:13:56,28 Aug 2015 10:13:56,229715,NIL, ,21
229716,11,4,FUTCOM,GOLD,05OCT2015, , ,GOLD,1,RL,1,13736,0,1,2000,26497,1,11001,13735, , , ,28 Aug 2015 10:13:56,28 Aug 2015 10:13:56,229716,NIL, ,1
229717,11,4,FUTCOM,GOLD,05OCT2015, , ,GOLD,1,RL,1,13736,0,0,1000,26498,1,11001,13735, , , ,28 Aug 2015 10:14:15,28 Aug 2015 10:14:15,229717,NIL, ,8
229718,11,4,FUTCOM,GOLD,05OCT2015, , ,GOLD,1,RL,1,13736,0,1,1000,26498,1,11001,13735, , , ,28 Aug 2015 10:14:15,28 Aug 2015 10:14:15,229718,NIL, ,1
229719,11,4,FUTCOM,GOLD,05OCT2015, , ,GOLD,1,RL,1,13736,0,0,100,26471,1,11001,13735, , , ,28 Aug 2015 10:16:55,28 Aug 2015 10:16:55,229719,NIL, ,55
229720,11,4,FUTCOM,GOLD,05OCT2015, , ,GOLD,1,RL,1,13736,0,1,100,26471,1,11001,13735, , , ,28 Aug 2015 10:16:55,28 Aug 2015 10:16:55,229720,NIL, ,1
229721,11,4,FUTCOM,mahindra,24SEP2015, , ,mahindra,1,RL,1,13736,0,0,10000,1235.5,1,11001,13735, , , ,28 Aug 2015 10:39:10,28 Aug 2015 10:39:10,229721,NIL, ,12
229722,11,4,FUTCOM,mahindra,24SEP2015, , ,mahindra,1,RL,1,13736,0,1,10000,1235.5,1,11001,13735, , , ,28 Aug 2015 10:39:10,28 Aug 2015 10:39:10,229722,NIL, ,1
229723,11,4,FUTCOM,mahindra,24SEP2015, , ,mahindra,1,RL,1,13736,0,0,10000,1235.5,1,11001,13735, , , ,28 Aug 2015 10:39:26,28 Aug 2015 10:39:26,229723,NIL, ,8
229724,11,4,FUTCOM,mahindra,24SEP2015, , ,mahindra,1,RL,1,13736,0,1,10000,1235.5,1,11001,13735, , , ,28 Aug 2015 10:39:26,28 Aug 2015 10:39:26,229724,NIL, ,1
229725,11,4,FUTCOM,GOLD,05OCT2015, , ,GOLD,1,RL,1,13736,0,0,1000,26501,1,11001,13735, , , ,28 Aug 2015 12:04:43,28 Aug 2015 12:04:43,229725,NIL, ,12
229726,11,4,FUTCOM,GOLD,05OCT2015, , ,GOLD,1,RL,1,13736,0,1,1000,26501,1,11001,13735, , , ,28 Aug 2015 12:04:43,28 Aug 2015 12:04:43,229726,NIL, ,1
229727,11,4,FUTCOM,CRUD,19AUG2015, , ,CRUD,1,RL,1,13736,0,1,1000,2847,1,11001,13735, , , ,28 Aug 2015 12:16:49,28 Aug 2015 12:16:49,229727,NIL, ,12
229728,11,4,FUTCOM,CRUD,19AUG2015, , ,CRUD,1,RL,1,13736,0,0,1000,2847,1,11001,13735, , , ,28 Aug 2015 12:16:49,28 Aug 2015 12:16:49,229728,NIL, ,1
229729,11,4,FUTCOM,SILVER,04SEP2015, , ,SILVER,1,RL,1,13736,0,0,60,34269,1,11001,13735, , , ,28 Aug 2015 12:17:03,28 Aug 2015 12:17:03,229729,NIL, ,12
229730,11,4,FUTCOM,SILVER,04SEP2015, , ,SILVER,1,RL,1,13736,0,1,60,34269,1,11001,13735, , , ,28 Aug 2015 12:17:03,28 Aug 2015 12:17:03,229730,NIL, ,1
229731,11,4,FUTCOM,COPPER,30JUN2015, , ,COPPER,1,RL,1,13736,0,1,10000,337.55,1,11001,13735, , , ,28 Aug 2015 14:16:00,28 Aug 2015 14:16:00,229731,NIL, ,12
229732,11,4,FUTCOM,COPPER,30JUN2015, , ,COPPER,1,RL,1,13736,0,0,10000,337.55,1,11001,13735, , , ,28 Aug 2015 14:16:00,28 Aug 2015 14:16:00,229732,NIL, ,1
229733,11,4,FUTCOM,NICKEL,30JUN2015, , ,NICKEL,1,RL,1,13736,0,0,5000,650.4,1,11001,13735, , , ,28 Aug 2015 20:38:12,28 Aug 2015 20:38:12,229733,NIL, ,32
229734,11,4,FUTCOM,NICKEL,30JUN2015, , ,NICKEL,1,RL,1,13736,0,1,5000,650.4,1,11001,13735, , , ,28 Aug 2015 20:38:12,28 Aug 2015 20:38:12,229734,NIL, ,1
229735,11,4,FUTCOM,GOLD,05OCT2015, , ,GOLD,1,RL,1,13736,0,0,200,26657,1,11001,13735, , , ,28 Aug 2015 20:39:34,28 Aug 2015 20:39:34,229735,NIL, ,2
229736,11,4,FUTCOM,GOLD,05OCT2015, , ,GOLD,1,RL,1,13736,0,1,200,26657,1,11001,13735, , , ,28 Aug 2015 20:39:34,28 Aug 2015 20:39:34,229736,NIL, ,1
229737,11,4,FUTCOM,CRUD,19AUG2015, , ,CRUD,1,RL,1,13736,0,0,1000,2985,1,11001,13735, , , ,28 Aug 2015 21:49:41,28 Aug 2015 21:49:41,229737,NIL, ,12
229738,11,4,FUTCOM,CRUD,19AUG2015, , ,CRUD,1,RL,1,13736,0,1,1000,2985,1,11001,13735, , , ,28 Aug 2015 21:49:41,28 Aug 2015 21:49:41,229738,NIL, ,1
229739,11,4,FUTCOM,SILVER,04SEP2015, , ,SILVER,1,RL,1,13736,0,0,60,34287,1,11001,13735, , , ,28 Aug 2015 21:50:14,28 Aug 2015 21:50:14,229739,NIL, ,2
229740,11,4,FUTCOM,SILVER,04SEP2015, , ,SILVER,1,RL,1,13736,0,1,60,34287,1,11001,13735, , , ,28 Aug 2015 21:50:14,28 Aug 2015 21:50:14,229740,NIL, ,1
229741,11,4,FUTCOM,GOLD,05OCT2015, , ,GOLD,1,RL,1,13736,0,0,100,26620,1,11001,13735, , , ,28 Aug 2015 23:22:54,28 Aug 2015 23:22:54,229741,NIL, ,55
229742,11,4,FUTCOM,GOLD,05OCT2015, , ,GOLD,1,RL,1,13736,0,1,100,26620,1,11001,13735, , , ,28 Aug 2015 23:22:54,28 Aug 2015 23:22:54,229742,NIL, ,1
229743,11,4,FUTCOM,GOLD,05OCT2015, , ,GOLD,1,RL,1,13736,0,1,200,26638,1,11001,13735, , , ,28 Aug 2015 23:23:06,28 Aug 2015 23:23:06,229743,NIL, ,55
229744,11,4,FUTCOM,GOLD,05OCT2015, , ,GOLD,1,RL,1,13736,0,0,200,26638,1,11001,13735, , , ,28 Aug 2015 23:23:06,28 Aug 2015 23:23:06,229744,NIL, ,1
229745,11,4,FUTCOM,GOLD,05OCT2015, , ,GOLD,1,RL,1,13736,0,0,200,26620,1,11001,13735, , , ,28 Aug 2015 23:24:18,28 Aug 2015 23:24:18,229745,NIL, ,55
229746,11,4,FUTCOM,GOLD,05OCT2015, , ,GOLD,1,RL,1,13736,0,1,200,26620,1,11001,13735, , , ,28 Aug 2015 23:24:18,28 Aug 2015 23:24:18,229746,NIL, ,1
229747,11,4,FUTCOM,GOLD,05OCT2015, , ,GOLD,1,RL,1,13736,0,1,200,26625,1,11001,13735, , , ,28 Aug 2015 23:28:47,28 Aug 2015 23:28:47,229747,NIL, ,2
229748,11,4,FUTCOM,GOLD,05OCT2015, , ,GOLD,1,RL,1,13736,0,0,200,26625,1,11001,13735, , , ,28 Aug 2015 23:28:47,28 Aug 2015 23:28:47,229748,NIL, ,1
229749,11,4,FUTCOM,GOLD,05OCT2015, , ,GOLD,1,RL,1,13736,0,1,2000,26623,1,11001,13735, , , ,28 Aug 2015 ,28 Aug 2015 ,229749,NIL, ,21
229750,11,4,FUTCOM,GOLD,05OCT2015, , ,GOLD,1,RL,1,13736,0,0,2000,26623,1,11001,13735, , , ,29 Aug 2015 ,29 Aug 2015 ,229750,NIL, ,21
229751,11,4,FUTCOM,SILVER,04SEP2015, , ,SILVER,1,RL,1,13736,0,0,300,34378,1,11001,13735, , , ,28 Aug 2015 ,28 Aug 2015 ,229751,NIL, ,32
229752,11,4,FUTCOM,SILVER,04SEP2015, , ,SILVER,1,RL,1,13736,0,1,300,34378,1,11001,13735, , , ,29 Aug 2015 ,29 Aug 2015 ,229752,NIL, ,32
229753,11,4,FUTCOM,GOLD,05OCT2015, , ,GOLD,1,RL,1,13736,0,1,200,26623,1,11001,13735, , , ,28 Aug 2015 ,28 Aug 2015 ,229753,NIL, ,2
229754,11,4,FUTCOM,GOLD,05OCT2015, , ,GOLD,1,RL,1,13736,0,0,200,26623,1,11001,13735, , , ,29 Aug 2015 ,29 Aug 2015 ,229754,NIL, ,2
229755,11,4,FUTCOM,SILVER,04SEP2015, , ,SILVER,1,RL,1,13736,0,1,60,34378,1,11001,13735, , , ,28 Aug 2015 ,28 Aug 2015 ,229755,NIL, ,2
229756,11,4,FUTCOM,SILVER,04SEP2015, , ,SILVER,1,RL,1,13736,0,0,60,34378,1,11001,13735, , , ,29 Aug 2015 ,29 Aug 2015 ,229756,NIL, ,2
229757,11,4,FUTCOM,COPPER,30JUN2015, , ,COPPER,1,RL,1,13736,0,0,2000,342.2,1,11001,13735, , , ,28 Aug 2015 ,28 Aug 2015 ,229757,NIL, ,12
229758,11,4,FUTCOM,COPPER,30JUN2015, , ,COPPER,1,RL,1,13736,0,1,2000,342.2,1,11001,13735, , , ,29 Aug 2015 ,29 Aug 2015 ,229758,NIL, ,12
229759,11,4,FUTCOM,GOLD,05OCT2015, , ,GOLD,1,RL,1,13736,0,0,2000,26623,1,11001,13735, , , ,28 Aug 2015 ,28 Aug 2015 ,229759,NIL, ,12
229760,11,4,FUTCOM,GOLD,05OCT2015, , ,GOLD,1,RL,1,13736,0,1,2000,26623,1,11001,13735, , , ,29 Aug 2015 ,29 Aug 2015 ,229760,NIL, ,12
229761,11,4,FUTCOM,SILVER,04SEP2015, , ,SILVER,1,RL,1,13736,0,1,60,34378,1,11001,13735, , , ,28 Aug 2015 ,28 Aug 2015 ,229761,NIL, ,12
229762,11,4,FUTCOM,SILVER,04SEP2015, , ,SILVER,1,RL,1,13736,0,0,60,34378,1,11001,13735, , , ,29 Aug 2015 ,29 Aug 2015 ,229762,NIL, ,12
229763,11,4,FUTCOM,auropharma,24SEP2015, , ,auropharma,1,RL,1,13736,0,0,5500,778.55,1,11001,13735, , , ,31 Aug 2015 09:22:26,31 Aug 2015 09:22:26,229763,NIL, ,12
229764,11,4,FUTCOM,auropharma,24SEP2015, , ,auropharma,1,RL,1,13736,0,1,5500,778.55,1,11001,13735, , , ,31 Aug 2015 09:22:26,31 Aug 2015 09:22:26,229764,NIL, ,1
229765,11,4,FUTCOM,auropharma,24SEP2015, , ,auropharma,1,RL,1,13736,0,0,5500,778.55,1,11001,13735, , , ,31 Aug 2015 09:22:37,31 Aug 2015 09:22:37,229765,NIL, ,8
229766,11,4,FUTCOM,auropharma,24SEP2015, , ,auropharma,1,RL,1,13736,0,1,5500,778.55,1,11001,13735, , , ,31 Aug 2015 09:22:37,31 Aug 2015 09:22:37,229766,NIL, ,1
229767,11,4,FUTCOM,GOLD,05OCT2015, , ,GOLD,1,RL,1,13736,0,1,100,26651,1,11001,13735, , , ,31 Aug 2015 10:08:59,31 Aug 2015 10:08:59,229767,NIL, ,55
229768,11,4,FUTCOM,GOLD,05OCT2015, , ,GOLD,1,RL,1,13736,0,0,100,26651,1,11001,13735, , , ,31 Aug 2015 10:08:59,31 Aug 2015 10:08:59,229768,NIL, ,1
229769,11,4,FUTCOM,nifty,24SEP2015, , ,nifty,1,RL,1,13736,0,0,3000,8010,1,11001,13735, , , ,31 Aug 2015 10:58:35,31 Aug 2015 10:58:35,229769,NIL, ,21
229770,11,4,FUTCOM,nifty,24SEP2015, , ,nifty,1,RL,1,13736,0,1,3000,8010,1,11001,13735, , , ,31 Aug 2015 10:58:35,31 Aug 2015 10:58:35,229770,NIL, ,1
229771,11,4,FUTCOM,hdfc,24SEP2015, , ,hdfc,1,RL,1,13736,0,0,3000,1201.55,1,11001,13735, , , ,31 Aug 2015 10:58:59,31 Aug 2015 10:58:59,229771,NIL, ,21
229772,11,4,FUTCOM,hdfc,24SEP2015, , ,hdfc,1,RL,1,13736,0,1,3000,1201.55,1,11001,13735, , , ,31 Aug 2015 10:58:59,31 Aug 2015 10:58:59,229772,NIL, ,1
229773,11,4,FUTCOM,lupin,24SEP2015, , ,lupin,1,RL,1,13736,0,0,3000,1900.15,1,11001,13735, , , ,31 Aug 2015 10:59:12,31 Aug 2015 10:59:12,229773,NIL, ,21
229774,11,4,FUTCOM,lupin,24SEP2015, , ,lupin,1,RL,1,13736,0,1,3000,1900.15,1,11001,13735, , , ,31 Aug 2015 10:59:12,31 Aug 2015 10:59:12,229774,NIL, ,1
229775,11,4,FUTCOM,sunpharma,24SEP2015, , ,sunpharma,1,RL,1,13736,0,0,3000,895.7,1,11001,13735, , , ,31 Aug 2015 10:59:25,31 Aug 2015 10:59:25,229775,NIL, ,21
229776,11,4,FUTCOM,sunpharma,24SEP2015, , ,sunpharma,1,RL,1,13736,0,1,3000,895.7,1,11001,13735, , , ,31 Aug 2015 10:59:25,31 Aug 2015 10:59:25,229776,NIL, ,1
229777,11,4,FUTCOM,lt,24SEP2015, , ,lt,1,RL,1,13736,0,0,3000,1606.45,1,11001,13735, , , ,31 Aug 2015 10:59:41,31 Aug 2015 10:59:41,229777,NIL, ,21
229778,11,4,FUTCOM,lt,24SEP2015, , ,lt,1,RL,1,13736,0,1,3000,1606.45,1,11001,13735, , , ,31 Aug 2015 10:59:41,31 Aug 2015 10:59:41,229778,NIL, ,1
229779,11,4,FUTCOM,axis,24SEP2015, , ,axis,1,RL,1,13736,0,0,3000,515.1,1,11001,13735, , , ,31 Aug 2015 10:59:59,31 Aug 2015 10:59:59,229779,NIL, ,21
229780,11,4,FUTCOM,axis,24SEP2015, , ,axis,1,RL,1,13736,0,1,3000,515.1,1,11001,13735, , , ,31 Aug 2015 10:59:59,31 Aug 2015 10:59:59,229780,NIL, ,1
229781,11,4,FUTCOM,IGL,24SEP2015, , ,IGL,1,RL,1,13736,0,1,10000,476.1,1,11001,13735, , , ,31 Aug 2015 11:31:21,31 Aug 2015 11:31:21,229781,NIL, ,12
229782,11,4,FUTCOM,IGL,24SEP2015, , ,IGL,1,RL,1,13736,0,0,10000,476.1,1,11001,13735, , , ,31 Aug 2015 11:31:21,31 Aug 2015 11:31:21,229782,NIL, ,1
229783,11,4,FUTCOM,IGL,24SEP2015, , ,IGL,1,RL,1,13736,0,1,10000,476.1,1,11001,13735, , , ,31 Aug 2015 11:31:34,31 Aug 2015 11:31:34,229783,NIL, ,8
229784,11,4,FUTCOM,IGL,24SEP2015, , ,IGL,1,RL,1,13736,0,0,10000,476.1,1,11001,13735, , , ,31 Aug 2015 11:31:34,31 Aug 2015 11:31:34,229784,NIL, ,1
229785,11,4,FUTCOM,TATACOMM,24SEP2015, , ,TATACOMM,1,RL,1,13736,0,0,10000,389.25,1,11001,13735, , , ,31 Aug 2015 12:00:26,31 Aug 2015 12:00:26,229785,NIL, ,8
229786,11,4,FUTCOM,TATACOMM,24SEP2015, , ,TATACOMM,1,RL,1,13736,0,1,10000,389.25,1,11001,13735, , , ,31 Aug 2015 12:00:26,31 Aug 2015 12:00:26,229786,NIL, ,1
229787,11,4,FUTCOM,TATACOMM,24SEP2015, , ,TATACOMM,1,RL,1,13736,0,0,10000,389.25,1,11001,13735, , , ,31 Aug 2015 12:00:32,31 Aug 2015 12:00:32,229787,NIL, ,12
229788,11,4,FUTCOM,TATACOMM,24SEP2015, , ,TATACOMM,1,RL,1,13736,0,1,10000,389.25,1,11001,13735, , , ,31 Aug 2015 12:00:32,31 Aug 2015 12:00:32,229788,NIL, ,1
229789,11,4,FUTCOM,mahindra,24SEP2015, , ,mahindra,1,RL,1,13736,0,0,10000,1231.4,1,11001,13735, , , ,31 Aug 2015 14:39:15,31 Aug 2015 14:39:15,229789,NIL, ,12
229790,11,4,FUTCOM,mahindra,24SEP2015, , ,mahindra,1,RL,1,13736,0,1,10000,1231.4,1,11001,13735, , , ,31 Aug 2015 14:39:15,31 Aug 2015 14:39:15,229790,NIL, ,1
229791,11,4,FUTCOM,mahindra,24SEP2015, , ,mahindra,1,RL,1,13736,0,0,10000,1231.4,1,11001,13735, , , ,31 Aug 2015 14:39:24,31 Aug 2015 14:39:24,229791,NIL, ,8
229792,11,4,FUTCOM,mahindra,24SEP2015, , ,mahindra,1,RL,1,13736,0,1,10000,1231.4,1,11001,13735, , , ,31 Aug 2015 14:39:24,31 Aug 2015 14:39:24,229792,NIL, ,1
229793,11,4,FUTCOM,nifty,24SEP2015, , ,nifty,1,RL,1,13736,0,1,3000,8000,1,11001,13735, , , ,31 Aug 2015 15:25:04,31 Aug 2015 15:25:04,229793,NIL, ,21
229794,11,4,FUTCOM,nifty,24SEP2015, , ,nifty,1,RL,1,13736,0,0,3000,8000,1,11001,13735, , , ,31 Aug 2015 15:25:04,31 Aug 2015 15:25:04,229794,NIL, ,1
229795,11,4,FUTCOM,hdfc,24SEP2015, , ,hdfc,1,RL,1,13736,0,1,3000,1193.75,1,11001,13735, , , ,31 Aug 2015 15:41:19,31 Aug 2015 15:41:19,229795,NIL, ,21
229796,11,4,FUTCOM,hdfc,24SEP2015, , ,hdfc,1,RL,1,13736,0,0,3000,1193.75,1,11001,13735, , , ,31 Aug 2015 15:41:19,31 Aug 2015 15:41:19,229796,NIL, ,1
229797,11,4,FUTCOM,sunpharma,24SEP2015, , ,sunpharma,1,RL,1,13736,0,1,3000,903.55,1,11001,13735, , , ,31 Aug 2015 15:41:34,31 Aug 2015 15:41:34,229797,NIL, ,21
229798,11,4,FUTCOM,sunpharma,24SEP2015, , ,sunpharma,1,RL,1,13736,0,0,3000,903.55,1,11001,13735, , , ,31 Aug 2015 15:41:34,31 Aug 2015 15:41:34,229798,NIL, ,1
229799,11,4,FUTCOM,lt,24SEP2015, , ,lt,1,RL,1,13736,0,1,3000,1595.45,1,11001,13735, , , ,31 Aug 2015 15:41:48,31 Aug 2015 15:41:48,229799,NIL, ,21
229800,11,4,FUTCOM,lt,24SEP2015, , ,lt,1,RL,1,13736,0,0,3000,1595.45,1,11001,13735, , , ,31 Aug 2015 15:41:48,31 Aug 2015 15:41:48,229800,NIL, ,1
229801,11,4,FUTCOM,axis,24SEP2015, , ,axis,1,RL,1,13736,0,1,3000,509.75,1,11001,13735, , , ,31 Aug 2015 15:41:58,31 Aug 2015 15:41:58,229801,NIL, ,21
229802,11,4,FUTCOM,axis,24SEP2015, , ,axis,1,RL,1,13736,0,0,3000,509.75,1,11001,13735, , , ,31 Aug 2015 15:41:58,31 Aug 2015 15:41:58,229802,NIL, ,1
229803,11,4,FUTCOM,lupin,24SEP2015, , ,lupin,1,RL,1,13736,0,1,3000,1927,1,11001,13735, , , ,31 Aug 2015 ,31 Aug 2015 ,229803,NIL, ,21
229805,11,4,FUTCOM,auropharma,24SEP2015, , ,auropharma,1,RL,1,13736,0,1,5500,756.45,1,11001,13735, , , ,31 Aug 2015 ,31 Aug 2015 ,229805,NIL, ,12
229807,11,4,FUTCOM,IGL,24SEP2015, , ,IGL,1,RL,1,13736,0,0,10000,474.5,1,11001,13735, , , ,31 Aug 2015 ,31 Aug 2015 ,229807,NIL, ,12
229809,11,4,FUTCOM,mahindra,24SEP2015, , ,mahindra,1,RL,1,13736,0,1,10000,1229.75,1,11001,13735, , , ,31 Aug 2015 ,31 Aug 2015 ,229809,NIL, ,12
229811,11,4,FUTCOM,TATACOMM,24SEP2015, , ,TATACOMM,1,RL,1,13736,0,1,10000,391.3,1,11001,13735, , , ,31 Aug 2015 ,31 Aug 2015 ,229811,NIL, ,12
229813,11,4,FUTCOM,auropharma,24SEP2015, , ,auropharma,1,RL,1,13736,0,1,5500,756.45,1,11001,13735, , , ,31 Aug 2015 ,31 Aug 2015 ,229813,NIL, ,8
229815,11,4,FUTCOM,IGL,24SEP2015, , ,IGL,1,RL,1,13736,0,0,10000,474.5,1,11001,13735, , , ,31 Aug 2015 ,31 Aug 2015 ,229815,NIL, ,8
229817,11,4,FUTCOM,mahindra,24SEP2015, , ,mahindra,1,RL,1,13736,0,1,10000,1229.75,1,11001,13735, , , ,31 Aug 2015 ,31 Aug 2015 ,229817,NIL, ,8
229819,11,4,FUTCOM,TATACOMM,24SEP2015, , ,TATACOMM,1,RL,1,13736,0,1,10000,391.3,1,11001,13735, , , ,31 Aug 2015 ,31 Aug 2015 ,229819,NIL, ,8
